1632051171582465 B microfactory /workspace/testrepo/eeeeeeee/android/lineage/out/microfactory_Linux
1632051171582821 B findDeps
1632051171583787 E findDeps
1632051171583841 B check compile github.com/google/blueprint/microfactory
1632051171584999 E check compile github.com/google/blueprint/microfactory
1632051171585021 B check compile main
1632051171585828 E check compile main
1632051171585839 B check link main
1632051171586063 E check link main
1632051171586144 B findDeps
1632051171618362 E findDeps
1632051171618451 B check compile github.com/golang/protobuf/proto
1632051171618570 B check compile android/soong/ui/logger
1632051171618720 B check compile github.com/google/blueprint/microfactory
1632051171618867 B check compile android/soong/finder/fs
1632051171618980 B check compile android/soong/shared
1632051171619329 B check compile android/soong/ui/build/paths
1632051171620610 E check compile android/soong/shared
1632051171620985 E check compile android/soong/ui/build/paths
1632051171620708 E check compile github.com/google/blueprint/microfactory
1632051171620736 E check compile android/soong/finder/fs
1632051171621045 B check compile android/soong/finder
1632051171620757 E check compile android/soong/ui/logger
1632051171621169 E check compile github.com/golang/protobuf/proto
1632051171621202 B check compile android/soong/ui/status/build_error_proto
1632051171621215 B check compile android/soong/ui/metrics/metrics_proto
1632051171621258 B check compile android/soong/ui/status/ninja_frontend
1632051171621524 E check compile android/soong/ui/status/build_error_proto
1632051171621610 E check compile android/soong/ui/metrics/metrics_proto
1632051171621611 E check compile android/soong/ui/status/ninja_frontend
1632051171621624 B check compile android/soong/ui/status
1632051171622395 E check compile android/soong/ui/status
1632051171622423 B check compile android/soong/ui/tracer
1632051171622452 B check compile android/soong/ui/terminal
1632051171622531 E check compile android/soong/finder
1632051171622761 E check compile android/soong/ui/tracer
1632051171622774 B check compile android/soong/ui/metrics
1632051171623044 E check compile android/soong/ui/metrics
1632051171623054 B check compile android/soong/ui/build
1632051171623546 E check compile android/soong/ui/terminal
1632051171623936 E check compile android/soong/ui/build
1632051171623949 B check compile main
1632051171624232 E check compile main
1632051171624239 B check link main
1632051171624427 E check link main
1632051171624440 E microfactory /workspace/testrepo/eeeeeeee/android/lineage/out/microfactory_Linux
