 0x000000000000000e (SONAME)             Library soname: [libplatformconfig.so]
  
Symbol   contains 66 entries:
Num:   Type Bind Vis Ndx Name
0:   NOTYPE LOCAL DEFAULT UND
1:   FUNC GLOBAL DEFAULT UND __cxa_finalize@LIBC (2)
2:   FUNC GLOBAL DEFAULT UND _ZN6vendor3qti8hardware21
3:   FUNC GLOBAL DEFAULT UND _ZN7android14sp_report_ra
4:   FUNC GLOBAL DEFAULT UND _ZN7android8hardware11hid
5:   FUNC GLOBAL DEFAULT UND _ZN7android8hardware11hid
6:   FUNC GLOBAL DEFAULT UND _ZN7android8hardware11hid
7:   FUNC GLOBAL DEFAULT UND _ZN7android8hardware11hid
8:   FUNC GLOBAL DEFAULT UND _ZN7android8hardware7deta
9:   FUNC GLOBAL DEFAULT UND _ZNK7android7RefBase9decS
10:   FUNC GLOBAL DEFAULT UND _ZNK7android8hardware11hi
11:   FUNC GLOBAL DEFAULT UND _ZNK7android8hardware11hi
12:   FUNC GLOBAL DEFAULT UND _ZNKSt3__121__basic_strin
13:   FUNC GLOBAL DEFAULT UND _ZSt9terminatev
14:   FUNC GLOBAL DEFAULT UND _ZdlPv
15:   FUNC GLOBAL DEFAULT UND _Znwm
16:   FUNC GLOBAL DEFAULT UND __android_log_print@LIBLOG (3)
17:   FUNC GLOBAL DEFAULT UND __cxa_begin_catch
18:   FUNC GLOBAL DEFAULT UND __gxx_personality_v0
19:   FUNC GLOBAL DEFAULT UND __stack_chk_fail@LIBC (2)
20:   FUNC GLOBAL DEFAULT UND atoi@LIBC (2)
21:   FUNC GLOBAL DEFAULT UND memcmp@LIBC (2)
22:   FUNC GLOBAL DEFAULT UND memcpy@LIBC (2)
23:   FUNC GLOBAL DEFAULT UND strlen@LIBC (2)
24:   FUNC GLOBAL DEFAULT UND strncasecmp@LIBC (2)
25:   FUNC GLOBAL DEFAULT UND XML_GetBuffer
26:   FUNC GLOBAL DEFAULT UND XML_ParseBuffer
27:   FUNC GLOBAL DEFAULT UND XML_ParserCreate
28:   FUNC GLOBAL DEFAULT UND XML_ParserFree
29:   FUNC GLOBAL DEFAULT UND XML_SetElementHandler
30:   FUNC GLOBAL DEFAULT UND XML_SetUserData
31:   FUNC GLOBAL DEFAULT UND _ZNSt3__112basic_stringIc
32:   FUNC GLOBAL DEFAULT UND _ZNSt3__112basic_stringIc
33:   FUNC GLOBAL DEFAULT UND __errno@LIBC (2)
34:   FUNC GLOBAL DEFAULT UND fclose@LIBC (2)
35:   FUNC GLOBAL DEFAULT UND fopen@LIBC (2)
36:   FUNC GLOBAL DEFAULT UND fread@LIBC (2)
37:   FUNC GLOBAL DEFAULT UND strcmp@LIBC (2)
38:   FUNC GLOBAL DEFAULT UND strerror@LIBC (2)
39:   FUNC GLOBAL DEFAULT UND abort@LIBC (2)
40:   FUNC GLOBAL DEFAULT UND memset@LIBC (2)
41:   FUNC WEAK DEFAULT UND pthread_create@LIBC (2)
42:   FUNC WEAK DEFAULT UND pthread_once@LIBC (2)
43:   FUNC GLOBAL DEFAULT UND malloc@LIBC (2)
44:   FUNC GLOBAL DEFAULT UND free@LIBC (2)
45:   FUNC GLOBAL DEFAULT UND dl_iterate_phdr@LIBC (4)
46:   FUNC WEAK DEFAULT UND pthread_mutex_unlock@LIBC (2)
47:   FUNC WEAK DEFAULT UND pthread_mutex_lock@LIBC (2)
48:   FUNC GLOBAL DEFAULT 14 _ZN8Platform6Config20isCo
49:   FUNC GLOBAL DEFAULT 14 _ZN8Platform6ConfigC1Ev
50:   FUNC WEAK DEFAULT 14 _ZNSt3__16__treeINS_12__v
51:   FUNC GLOBAL DEFAULT 14 getConfigStoreBool
52:   FUNC GLOBAL DEFAULT 14 _ZN8Platform12ConfigParse
53:   OBJECT GLOBAL DEFAULT 22 _ZN8Platform6Config9mInst
54:   FUNC GLOBAL DEFAULT 14 _ZN8Platform6ConfigC2Ev
55:   FUNC WEAK DEFAULT 14 _ZNSt3__16__treeINS_12__v
56:   FUNC GLOBAL DEFAULT 14 _ZN8Platform12ConfigParse
57:   FUNC WEAK DEFAULT 14 _ZNSt3__16__treeINS_12__v
58:   FUNC GLOBAL DEFAULT 14 _ZN8Platform6Config18getC
59:   FUNC GLOBAL DEFAULT 14 _ZN8Platform6Config8getIn
60:   FUNC WEAK DEFAULT 14 _ZNSt3__127__tree_balance
61:   FUNC WEAK DEFAULT 14 _ZNSt3__16__treeINS_12__v
62:   FUNC GLOBAL DEFAULT 14 _ZN8Platform12ConfigParse
63:   FUNC GLOBAL DEFAULT 14 _ZN8Platform6Config11getI
64:   FUNC GLOBAL DEFAULT 14 _ZN8Platform12ConfigParse
65:   FUNC GLOBAL DEFAULT 14 isConfigStoreEnabled
