 0x0000000e (SONAME)                     Library soname: [liblbs_core.so]
  
Symbol   contains 371 entries:
Num:   Type Bind Vis Ndx Name
0:   NOTYPE LOCAL DEFAULT UND
1:   FUNC GLOBAL DEFAULT UND __cxa_finalize@LIBC (2)
2:   FUNC GLOBAL DEFAULT UND _ZN8loc_core10LocApiBase1
3:   FUNC GLOBAL DEFAULT UND _ZN8loc_core14LocAdapterB
4:   FUNC GLOBAL DEFAULT UND _ZN8loc_core14LocAdapterB
5:   FUNC GLOBAL DEFAULT UND _ZN8loc_core14LocAdapterB
6:   FUNC GLOBAL DEFAULT UND _ZN8loc_core14LocAdapterB
7:   FUNC GLOBAL DEFAULT UND _ZN8loc_core14LocAdapterB
8:   FUNC GLOBAL DEFAULT UND _ZN8loc_core14LocAdapterB
9:   FUNC GLOBAL DEFAULT UND _ZN8loc_core14LocAdapterB
10:   FUNC GLOBAL DEFAULT UND _ZN8loc_core14LocAdapterB
11:   FUNC GLOBAL DEFAULT UND _ZN8loc_core14LocAdapterB
12:   FUNC GLOBAL DEFAULT UND _ZN8loc_core14LocAdapterB
13:   FUNC GLOBAL DEFAULT UND _ZN8loc_core14LocAdapterB
14:   FUNC GLOBAL DEFAULT UND _ZN8loc_core14LocAdapterB
15:   FUNC GLOBAL DEFAULT UND _ZN8loc_core14LocAdapterB
16:   FUNC GLOBAL DEFAULT UND _ZN8loc_core14LocAdapterB
17:   FUNC GLOBAL DEFAULT UND _ZN8loc_core14LocAdapterB
18:   FUNC GLOBAL DEFAULT UND _ZN8loc_core14LocAdapterB
19:   FUNC GLOBAL DEFAULT UND _ZN8loc_core14LocAdapterB
20:   FUNC GLOBAL DEFAULT UND _ZN8loc_core14LocAdapterB
21:   FUNC GLOBAL DEFAULT UND _ZN8loc_core14LocAdapterB
22:   FUNC GLOBAL DEFAULT UND _ZN8loc_core14LocAdapterB
23:   FUNC GLOBAL DEFAULT UND _ZN8loc_core14LocAdapterB
24:   FUNC GLOBAL DEFAULT UND _ZN8loc_core14LocAdapterB
25:   FUNC GLOBAL DEFAULT UND _ZN8loc_core14LocAdapterB
26:   FUNC GLOBAL DEFAULT UND _ZN8loc_core14LocAdapterB
27:   FUNC GLOBAL DEFAULT UND _ZN8loc_core14LocAdapterB
28:   FUNC GLOBAL DEFAULT UND _ZN8loc_core14LocAdapterB
29:   FUNC GLOBAL DEFAULT UND _ZN8loc_core14LocAdapterB
30:   FUNC GLOBAL DEFAULT UND _ZN8loc_core14LocAdapterB
31:   FUNC GLOBAL DEFAULT UND _ZN8loc_core14LocAdapterB
32:   FUNC GLOBAL DEFAULT UND _ZN8loc_core14LocAdapterB
33:   FUNC GLOBAL DEFAULT UND _ZN8loc_core14LocAdapterB
34:   FUNC GLOBAL DEFAULT UND _ZN8loc_core14LocAdapterB
35:   FUNC GLOBAL DEFAULT UND _ZN8loc_core14LocAdapterB
36:   FUNC GLOBAL DEFAULT UND _ZN8loc_core14LocAdapterB
37:   FUNC GLOBAL DEFAULT UND _ZN8loc_core14LocAdapterB
38:   FUNC GLOBAL DEFAULT UND _ZN8loc_core14LocAdapterB
39:   FUNC GLOBAL DEFAULT UND _ZN8loc_core14LocAdapterB
40:   OBJECT GLOBAL DEFAULT UND _ZTVN8loc_core14LocAdapte
41:   FUNC GLOBAL DEFAULT UND _ZdlPv
42:   FUNC GLOBAL DEFAULT UND _Znwj
43:   FUNC GLOBAL DEFAULT UND __android_log_print@LIBLOG (3)
44:   OBJECT GLOBAL DEFAULT UND loc_logger
45:   OBJECT GLOBAL DEFAULT UND ENTRY_TAG
46:   OBJECT GLOBAL DEFAULT UND EXIT_TAG
47:   OBJECT GLOBAL DEFAULT UND LOC_PATH_IZAT_CONF
48:   OBJECT GLOBAL DEFAULT UND VOID_RET
49:   OBJECT GLOBAL DEFAULT UND _ZN8loc_core11ContextBase
50:   FUNC GLOBAL DEFAULT UND _ZNK7MsgTask7sendMsgEPK6L
51:   FUNC GLOBAL DEFAULT UND __errno@LIBC (2)
52:   FUNC GLOBAL DEFAULT UND __open_2@LIBC (2)
53:   FUNC GLOBAL DEFAULT UND __stack_chk_fail@LIBC (2)
54:   OBJECT GLOBAL DEFAULT UND __stack_chk_guard@LIBC (2)
55:   FUNC GLOBAL DEFAULT UND __strlcpy_chk@LIBC (2)
56:   FUNC GLOBAL DEFAULT UND __strlen_chk@LIBC (2)
57:   FUNC GLOBAL DEFAULT UND abort@LIBC (2)
58:   FUNC GLOBAL DEFAULT UND access@LIBC (2)
59:   FUNC GLOBAL DEFAULT UND close@LIBC (2)
60:   FUNC GLOBAL DEFAULT UND dlopen@LIBC (4)
61:   FUNC GLOBAL DEFAULT UND dlsym@LIBC (4)
62:   FUNC GLOBAL DEFAULT UND free@LIBC (2)
63:   FUNC GLOBAL DEFAULT UND get_system_info
64:   FUNC GLOBAL DEFAULT UND get_timestamp
65:   FUNC GLOBAL DEFAULT UND loc_read_conf
66:   FUNC GLOBAL DEFAULT UND memcmp@LIBC (2)
67:   FUNC GLOBAL DEFAULT UND pm_client_connect
68:   FUNC GLOBAL DEFAULT UND pm_client_disconnect
69:   FUNC GLOBAL DEFAULT UND pm_client_event_acknowled
70:   FUNC GLOBAL DEFAULT UND pm_client_register
71:   FUNC GLOBAL DEFAULT UND servreg_alloc_DLHandle
72:   FUNC GLOBAL DEFAULT UND servreg_free_DLHandle
73:   FUNC GLOBAL DEFAULT UND servreg_get_data_for_noti
74:   FUNC GLOBAL DEFAULT UND servreg_get_domainlist
75:   FUNC GLOBAL DEFAULT UND servreg_get_numentries
76:   FUNC GLOBAL DEFAULT UND strerror@LIBC (2)
77:   FUNC GLOBAL DEFAULT UND strncmp@LIBC (2)
78:   FUNC GLOBAL DEFAULT UND strtok_r@LIBC (2)
79:   FUNC GLOBAL DEFAULT UND _ZN9izat_core10IzatApiV02
80:   OBJECT GLOBAL DEFAULT UND _ZN8loc_core10LocApiBase8
81:   FUNC GLOBAL DEFAULT UND _ZN9LocApiV0211addGeofenc
82:   FUNC GLOBAL DEFAULT UND _ZN9LocApiV0211setXtraDat
83:   FUNC GLOBAL DEFAULT UND _ZN9LocApiV0212setBatchSi
84:   FUNC GLOBAL DEFAULT UND _ZN9LocApiV0212stopBatchi
85:   FUNC GLOBAL DEFAULT UND _ZN9LocApiV0213atlOpenSta
86:   FUNC GLOBAL DEFAULT UND _ZN9LocApiV0213convertLpp
87:   FUNC GLOBAL DEFAULT UND _ZN9LocApiV0213convertLpp
88:   FUNC GLOBAL DEFAULT UND _ZN9LocApiV0213getWwanZpp
89:   FUNC GLOBAL DEFAULT UND _ZN9LocApiV0213pauseGeofe
90:   FUNC GLOBAL DEFAULT UND _ZN9LocApiV0213setServerS
91:   FUNC GLOBAL DEFAULT UND _ZN9LocApiV0213setServerS
92:   FUNC GLOBAL DEFAULT UND _ZN9LocApiV0213startBatch
93:   FUNC GLOBAL DEFAULT UND _ZN9LocApiV0214addToCallQ
94:   FUNC GLOBAL DEFAULT UND _ZN9LocApiV0214atlCloseSt
95:   FUNC GLOBAL DEFAULT UND _ZN9LocApiV0214getBlackli
96:   FUNC GLOBAL DEFAULT UND _ZN9LocApiV0214injectPosi
97:   FUNC GLOBAL DEFAULT UND _ZN9LocApiV0214injectPosi
98:   FUNC GLOBAL DEFAULT UND _ZN9LocApiV0214injectPosi
99:   FUNC GLOBAL DEFAULT UND _ZN9LocApiV0214locSyncSen
100:   FUNC GLOBAL DEFAULT UND _ZN9LocApiV0214modifyGeof
101:   FUNC GLOBAL DEFAULT UND _ZN9LocApiV0214removeGeof
102:   FUNC GLOBAL DEFAULT UND _ZN9LocApiV0214resumeGeof
103:   FUNC GLOBAL DEFAULT UND _ZN9LocApiV0214setBlackli
104:   FUNC GLOBAL DEFAULT UND _ZN9LocApiV0214setGpsLock
105:   FUNC GLOBAL DEFAULT UND _ZN9LocApiV0215installAGp
106:   FUNC GLOBAL DEFAULT UND _ZN9LocApiV0216deleteAidi
107:   FUNC GLOBAL DEFAULT UND _ZN9LocApiV0216informNiRe
108:   FUNC GLOBAL DEFAULT UND _ZN9LocApiV0216setLPPConf
109:   FUNC GLOBAL DEFAULT UND _ZN9LocApiV0216setNMEATyp
110:   FUNC GLOBAL DEFAULT UND _ZN9LocApiV0216setTripBat
111:   FUNC GLOBAL DEFAULT UND _ZN9LocApiV0217convertLpp
112:   FUNC GLOBAL DEFAULT UND _ZN9LocApiV0217requestXtr
113:   FUNC GLOBAL DEFAULT UND _ZN9LocApiV0218convertPos
114:   FUNC GLOBAL DEFAULT UND _ZN9LocApiV0218convertSup
115:   FUNC GLOBAL DEFAULT UND _ZN9LocApiV0218setBlackli
116:   FUNC GLOBAL DEFAULT UND _ZN9LocApiV0218setSUPLVer
117:   FUNC GLOBAL DEFAULT UND _ZN9LocApiV0219getBatched
118:   FUNC GLOBAL DEFAULT UND _ZN9LocApiV0220requestFor
119:   FUNC GLOBAL DEFAULT UND _ZN9LocApiV0221getGnssEne
120:   FUNC GLOBAL DEFAULT UND _ZN9LocApiV0221setLPPePro
121:   FUNC GLOBAL DEFAULT UND _ZN9LocApiV0221setLPPePro
122:   FUNC GLOBAL DEFAULT UND _ZN9LocApiV0221stopTimeBa
123:   FUNC GLOBAL DEFAULT UND _ZN9LocApiV0222convertNav
124:   FUNC GLOBAL DEFAULT UND _ZN9LocApiV0222getBestAva
125:   FUNC GLOBAL DEFAULT UND _ZN9LocApiV0222setConstra
126:   FUNC GLOBAL DEFAULT UND _ZN9LocApiV0222startTimeB
127:   FUNC GLOBAL DEFAULT UND _ZN9LocApiV0223getBatched
128:   FUNC GLOBAL DEFAULT UND _ZN9LocApiV0223getBatched
129:   FUNC GLOBAL DEFAULT UND _ZN9LocApiV0223getConstel
130:   FUNC GLOBAL DEFAULT UND _ZN9LocApiV0223setAGLONAS
131:   FUNC GLOBAL DEFAULT UND _ZN9LocApiV0223setConstel
132:   FUNC GLOBAL DEFAULT UND _ZN9LocApiV0223setSensorP
133:   FUNC GLOBAL DEFAULT UND _ZN9LocApiV0223setXtraVer
134:   FUNC GLOBAL DEFAULT UND _ZN9LocApiV0223stopOutdoo
135:   FUNC GLOBAL DEFAULT UND _ZN9LocApiV0224startOutdo
136:   FUNC GLOBAL DEFAULT UND _ZN9LocApiV0225resetConst
137:   FUNC GLOBAL DEFAULT UND _ZN9LocApiV0225stopDistan
138:   FUNC GLOBAL DEFAULT UND _ZN9LocApiV0226handleWwan
139:   FUNC GLOBAL DEFAULT UND _ZN9LocApiV0226reStartOut
140:   FUNC GLOBAL DEFAULT UND _ZN9LocApiV0226startDista
141:   FUNC GLOBAL DEFAULT UND _ZN9LocApiV0227getBatched
142:   FUNC GLOBAL DEFAULT UND _ZN9LocApiV0227stopOutdoo
143:   FUNC GLOBAL DEFAULT UND _ZN9LocApiV0228queryAccum
144:   FUNC GLOBAL DEFAULT UND _ZN9LocApiV0228startOutdo
145:   FUNC GLOBAL DEFAULT UND _ZN9LocApiV0229setSvMeasu
146:   FUNC GLOBAL DEFAULT UND _ZN9LocApiV0230setSensorP
147:   FUNC GLOBAL DEFAULT UND _ZN9LocApiV0231setEmergen
148:   FUNC GLOBAL DEFAULT UND _ZN9LocApiV0232queryAccum
149:   FUNC GLOBAL DEFAULT UND _ZN9LocApiV0235handleZppB
150:   FUNC GLOBAL DEFAULT UND _ZN9LocApiV0237setPositio
151:   FUNC GLOBAL DEFAULT UND _ZN9LocApiV024openEy
152:   FUNC GLOBAL DEFAULT UND _ZN9LocApiV025closeEv
153:   FUNC GLOBAL DEFAULT UND _ZN9LocApiV027eventCbEPvj
154:   FUNC GLOBAL DEFAULT UND _ZN9LocApiV027setTimeExxi
155:   FUNC GLOBAL DEFAULT UND _ZN9LocApiV027stopFixEPN8
156:   FUNC GLOBAL DEFAULT UND _ZN9LocApiV028startFixERK
157:   FUNC GLOBAL DEFAULT UND _ZN9LocApiV02C2EyPN8loc_c
158:   FUNC GLOBAL DEFAULT UND _ZN9LocApiV02D2Ev
159:   FUNC GLOBAL DEFAULT UND _ZNKSt3__120__vector_base
160:   FUNC GLOBAL DEFAULT UND _ZdaPv
161:   FUNC GLOBAL DEFAULT UND _Znaj
162:   FUNC GLOBAL DEFAULT UND __memcpy_chk@LIBC (2)
163:   FUNC GLOBAL DEFAULT UND clock_gettime@LIBC (2)
164:   FUNC GLOBAL DEFAULT UND loc_get_v02_event_name
165:   FUNC GLOBAL DEFAULT UND fflush@LIBC (2)
166:   FUNC GLOBAL DEFAULT UND fprintf@LIBC (2)
167:   OBJECT GLOBAL DEFAULT UND stderr@LIBC (2)
168:   FUNC GLOBAL DEFAULT UND __vsnprintf_chk@LIBC (2)
169:   FUNC GLOBAL DEFAULT UND dl_iterate_phdr@LIBC (4)
170:   FUNC GLOBAL DEFAULT UND dladdr@LIBC (4)
171:   FUNC GLOBAL DEFAULT UND memcpy@LIBC (2)
172:   FUNC GLOBAL DEFAULT UND memset@LIBC (2)
173:   FUNC WEAK DEFAULT 13 _ZNSt3__16__treeINS_12__v
174:   FUNC GLOBAL DEFAULT 13 _ZN8lbs_core10LBSApiBase2
175:   FUNC GLOBAL DEFAULT 13 _ZN8lbs_core9LBSApiV0220c
176:   FUNC GLOBAL DEFAULT 13 unw_save_vfp_as_X
177:   FUNC GLOBAL DEFAULT 13 _ZN8lbs_core9LBSApiV0219i
178:   FUNC GLOBAL DEFAULT 13 _ZN8lbs_core9LBSApiV028sh
179:   FUNC WEAK DEFAULT 13 _ZNSt3__16vectorI15BSSpec
180:   FUNC GLOBAL DEFAULT 13 _ZThn156_N8lbs_core9LBSAp
181:   FUNC GLOBAL DEFAULT 13 unw_is_signal_frame
182:   OBJECT WEAK DEFAULT 17 _ZTVN8loc_core14LocApiRes
183:   FUNC GLOBAL DEFAULT 13 unw_get_fpreg
184:   FUNC GLOBAL DEFAULT 13 _Unwind_VRS_Interpret
185:   FUNC GLOBAL DEFAULT 13 _ZN8lbs_core10LBSApiBase1
186:   FUNC GLOBAL DEFAULT 13 _ZN8lbs_core10LBSApiBase2
187:   FUNC GLOBAL DEFAULT 13 _ZN8lbs_core10LBSApiBase8
188:   FUNC GLOBAL DEFAULT 13 _ZN8lbs_core9LBSApiV0219c
189:   OBJECT GLOBAL DEFAULT 15 unw_local_addr_space
190:   FUNC GLOBAL DEFAULT 13 _ZN8lbs_core14LBSAdapterB
191:   OBJECT GLOBAL DEFAULT 15 _ZN8lbs_core8LBSProxy29FF
192:   OBJECT GLOBAL DEFAULT 22 _ZN8lbs_core8LBSProxy5mLo
193:   OBJECT GLOBAL DEFAULT 17 _ZTVN8lbs_core14LocApiPro
194:   FUNC GLOBAL DEFAULT 13 _ZN8lbs_core9LBSApiV0216i
195:   FUNC GLOBAL DEFAULT 13 _ZThn156_N8lbs_core9LBSAp
196:   FUNC GLOBAL DEFAULT 13 _ZN8lbs_core14LBSAdapterB
197:   FUNC GLOBAL DEFAULT 13 _ZN8lbs_core14LBSAdapterB
198:   FUNC GLOBAL DEFAULT 13 _ZN8lbs_core10LBSApiBase1
199:   FUNC GLOBAL DEFAULT 13 _ZThn156_N8lbs_core9LBSAp
200:   FUNC GLOBAL DEFAULT 13 _ZThn156_N8lbs_core9LBSAp
201:   FUNC GLOBAL DEFAULT 13 _ZN8lbs_core9LBSApiV0231g
202:   FUNC GLOBAL DEFAULT 13 _ZN8lbs_core14LBSAdapterB
203:   FUNC GLOBAL DEFAULT 13 _ZN8lbs_core14LBSAdapterB
204:   FUNC GLOBAL DEFAULT 13 _ZN8lbs_core10LBSApiBase1
205:   FUNC GLOBAL DEFAULT 13 _ZN8lbs_core10LBSApiBase1
206:   OBJECT GLOBAL DEFAULT 15 _ZN8lbs_core8LBSProxy35CO
207:   FUNC GLOBAL DEFAULT 13 _ZThn156_N8lbs_core9LBSAp
208:   FUNC GLOBAL DEFAULT 13 _ZThn156_N8lbs_core9LBSAp
209:   FUNC GLOBAL DEFAULT 13 unw_regname
210:   FUNC GLOBAL DEFAULT 13 _ZN8lbs_core14LBSAdapterB
211:   FUNC GLOBAL DEFAULT 13 _ZN8lbs_core10LBSApiBase2
212:   FUNC GLOBAL DEFAULT 13 _ZNK8lbs_core8LBSProxy31p
213:   FUNC GLOBAL DEFAULT 13 _ZN8lbs_core9LBSApiV02D1E
214:   FUNC WEAK DEFAULT 13 _ZNSt3__114__split_buffer
215:   FUNC GLOBAL DEFAULT 13 _ZThn156_N8lbs_core9LBSAp
216:   FUNC GLOBAL DEFAULT 13 unw_step
217:   FUNC GLOBAL DEFAULT 13 _ZN8lbs_core14LBSAdapterB
218:   FUNC GLOBAL DEFAULT 13 _ZN8lbs_core9LBSApiV0216i
219:   FUNC GLOBAL DEFAULT 13 __aeabi_memcpy4
220:   FUNC GLOBAL DEFAULT 13 unw_get_reg
221:   OBJECT GLOBAL DEFAULT 22 _ZN8lbs_core8LBSProxy13mC
222:   FUNC WEAK DEFAULT 13 _ZNSt3__16vectorI16BSLoca
223:   FUNC GLOBAL DEFAULT 13 _ZN8lbs_core14LocApiProxy
224:   FUNC GLOBAL DEFAULT 13 _ZN8lbs_core14LBSAdapterB
225:   OBJECT GLOBAL DEFAULT 17 _ZTVN8lbs_core14LBSAdapte
226:   FUNC GLOBAL DEFAULT 13 _ZN8lbs_core9LBSApiV0219m
227:   OBJECT WEAK DEFAULT 17 _ZTVN8loc_core9LocApiMsgE
228:   FUNC GLOBAL DEFAULT 13 __fixunsdfdi
229:   FUNC GLOBAL DEFAULT 13 _ZN8lbs_core10LBSApiBase1
230:   FUNC GLOBAL DEFAULT 13 _ZN8lbs_core9LBSApiV0219i
231:   FUNC GLOBAL DEFAULT 13 _ZN8lbs_core9LBSApiV0222c
232:   FUNC GLOBAL DEFAULT 13 __aeabi_memcpy8
233:   FUNC GLOBAL DEFAULT 13 _ZN8lbs_core10LBSApiBase1
234:   FUNC GLOBAL DEFAULT 13 _ZN8lbs_core14LocApiProxy
235:   FUNC GLOBAL DEFAULT 13 _ZThn156_N8lbs_core9LBSAp
236:   FUNC GLOBAL DEFAULT 13 _ZN8lbs_core14LBSAdapterB
237:   FUNC GLOBAL DEFAULT 13 _ZN8lbs_core10LBSApiBase1
238:   FUNC GLOBAL DEFAULT 13 _ZN8lbs_core9LBSApiV0214i
239:   FUNC GLOBAL DEFAULT 13 _ZN8lbs_core9LBSApiV0233g
240:   FUNC WEAK DEFAULT 13 _ZNSt3__16vectorI15BSSpec
241:   FUNC GLOBAL DEFAULT 13 _ZN8lbs_core10LBSApiBase1
242:   FUNC GLOBAL DEFAULT 13 _ZN8lbs_core10LBSApiBase1
243:   FUNC GLOBAL DEFAULT 13 _ZN8lbs_core10LBSApiBase1
244:   FUNC GLOBAL DEFAULT 13 _ZN8lbs_core9LBSApiV0216i
245:   FUNC GLOBAL DEFAULT 13 _ZThn156_N8lbs_core9LBSAp
246:   FUNC GLOBAL DEFAULT 13 unw_get_proc_info
247:   FUNC GLOBAL DEFAULT 13 _ZN8lbs_core14LBSAdapterB
248:   FUNC GLOBAL DEFAULT 13 _ZN8lbs_core10LBSApiBase1
249:   FUNC GLOBAL DEFAULT 13 _ZN8lbs_core10LBSApiBase1
250:   FUNC GLOBAL DEFAULT 13 _ZN8lbs_core10LBSApiBase2
251:   FUNC GLOBAL DEFAULT 13 _ZN8lbs_core14LBSAdapterB
252:   OBJECT WEAK DEFAULT 17 _ZTVN8loc_core15LocApiPro
253:   FUNC GLOBAL DEFAULT 13 _ZN8lbs_core10LBSApiBase2
254:   FUNC GLOBAL DEFAULT 13 _Unwind_DeleteException
255:   FUNC GLOBAL DEFAULT 13 decode_eht_entry
256:   FUNC GLOBAL DEFAULT 13 unw_getcontext
257:   FUNC GLOBAL DEFAULT 13 _ZN8lbs_core9LBSApiV0226i
258:   FUNC GLOBAL DEFAULT 13 _ZN8lbs_core9LBSApiV02D2E
259:   FUNC GLOBAL DEFAULT 13 _ZN8lbs_core10LBSApiBase1
260:   FUNC GLOBAL DEFAULT 13 _ZN8lbs_core10LBSApiBase1
261:   OBJECT GLOBAL DEFAULT 17 _ZTVN8lbs_core8LBSProxyE
262:   FUNC WEAK DEFAULT 13 _ZNSt3__16vectorI16BSLoca
263:   FUNC GLOBAL DEFAULT 13 _ZThn156_N8lbs_core9LBSAp
264:   FUNC GLOBAL DEFAULT 13 _ZThn156_N8lbs_core9LBSAp
265:   FUNC GLOBAL DEFAULT 13 _ZN8lbs_core14LBSAdapterB
266:   FUNC GLOBAL DEFAULT 13 _ZN8lbs_core10LBSApiBase1
267:   FUNC GLOBAL DEFAULT 13 unw_set_fpreg
268:   FUNC GLOBAL DEFAULT 13 _ZN8lbs_core14LocApiProxy
269:   FUNC GLOBAL DEFAULT 13 _ZN8lbs_core9LBSApiV02C1E
270:   FUNC GLOBAL DEFAULT 13 _ZN8lbs_core10LBSApiBase1
271:   FUNC GLOBAL DEFAULT 13 _ZN8lbs_core10LBSApiBase1
272:   FUNC GLOBAL DEFAULT 13 _ZN8lbs_core10LBSApiBase2
273:   FUNC GLOBAL DEFAULT 13 _ZN8lbs_core9LBSApiV0223w
274:   FUNC GLOBAL DEFAULT 13 unw_init_local
275:   FUNC GLOBAL DEFAULT 13 _Unwind_GetLanguageSpecif
276:   FUNC GLOBAL DEFAULT 13 _ZN8lbs_core9LBSApiV027ev
277:   FUNC GLOBAL DEFAULT 13 _ZN8lbs_core10LBSApiBase1
278:   FUNC GLOBAL DEFAULT 13 _ZN8lbs_core9LBSApiV0210n
279:   FUNC GLOBAL DEFAULT 13 __aeabi_memcpy
280:   FUNC GLOBAL DEFAULT 13 _ZN8lbs_core9LBSApiV0217r
281:   FUNC GLOBAL DEFAULT 13 _Unwind_VRS_Pop
282:   FUNC GLOBAL DEFAULT 13 _ZN8lbs_core10LBSApiBase1
283:   FUNC GLOBAL DEFAULT 13 _ZN8lbs_core10LBSApiBase1
284:   OBJECT GLOBAL DEFAULT 17 _ZTVN8lbs_core10LBSApiBas
285:   FUNC GLOBAL DEFAULT 13 _ZN8lbs_core9LBSApiV0215r
286:   FUNC GLOBAL DEFAULT 13 _Unwind_VRS_Set
287:   FUNC GLOBAL DEFAULT 13 __aeabi_memclr4
288:   FUNC GLOBAL DEFAULT 13 _ZN8lbs_core14LBSAdapterB
289:   FUNC GLOBAL DEFAULT 13 _ZN8lbs_core9LBSApiV0211c
290:   FUNC GLOBAL DEFAULT 13 _ZThn156_N8lbs_core9LBSAp
291:   FUNC GLOBAL DEFAULT 13 __aeabi_memset
292:   OBJECT GLOBAL DEFAULT 22 _ZN8lbs_core8LBSProxy23mN
293:   FUNC GLOBAL DEFAULT 13 _ZThn156_N8lbs_core9LBSAp
294:   FUNC GLOBAL DEFAULT 13 _ZN8lbs_core10LBSApiBase1
295:   OBJECT GLOBAL DEFAULT 22 _ZN8lbs_core8LBSProxy8mAd
296:   FUNC GLOBAL DEFAULT 13 _ZN8lbs_core9LBSApiV0214i
297:   FUNC GLOBAL DEFAULT 13 _ZN8lbs_core9LBSApiV0219d
298:   FUNC WEAK DEFAULT 13 _ZNSt3__16vectorI8BSInfo_
299:   FUNC GLOBAL DEFAULT 13 _ZN8lbs_core10LBSApiBase1
300:   FUNC GLOBAL DEFAULT 13 __aeabi_memclr8
301:   FUNC GLOBAL DEFAULT 13 unw_resume
302:   FUNC GLOBAL DEFAULT 13 _Unwind_Complete
303:   FUNC GLOBAL DEFAULT 13 _Unwind_GetRegionStart
304:   FUNC GLOBAL DEFAULT 13 _ZN8lbs_core14LBSAdapterB
305:   FUNC GLOBAL DEFAULT 13 _ZN8lbs_core14LocApiProxy
306:   FUNC GLOBAL DEFAULT 13 _ZN8lbs_core9LBSApiV0226w
307:   FUNC GLOBAL DEFAULT 13 _ZThn156_N8lbs_core9LBSAp
308:   FUNC GLOBAL DEFAULT 13 __aeabi_memclr
309:   FUNC GLOBAL DEFAULT 13 _ZN8lbs_core14LBSAdapterB
310:   FUNC GLOBAL DEFAULT 13 _ZN8lbs_core10LBSApiBase1
311:   FUNC GLOBAL DEFAULT 13 _ZN8lbs_core10LBSApiBase1
312:   FUNC GLOBAL DEFAULT 13 _ZN8lbs_core10LBSApiBase2
313:   FUNC GLOBAL DEFAULT 13 _ZN8lbs_core14LocApiProxy
314:   FUNC GLOBAL DEFAULT 13 _ZThn156_N8lbs_core9LBSAp
315:   FUNC GLOBAL DEFAULT 13 _ZThn156_N8lbs_core9LBSAp
316:   FUNC GLOBAL DEFAULT 13 _ZN8lbs_core14LBSAdapterB
317:   FUNC GLOBAL DEFAULT 13 _ZN8lbs_core9LBSApiV0213m
318:   FUNC GLOBAL DEFAULT 13 _ZThn156_N8lbs_core9LBSAp
319:   FUNC GLOBAL DEFAULT 13 _ZN8lbs_core10LBSApiBase1
320:   FUNC GLOBAL DEFAULT 13 _ZN8lbs_core9LBSApiV0214t
321:   FUNC WEAK DEFAULT 13 _ZNSt3__114__split_buffer
322:   FUNC GLOBAL DEFAULT 13 _ZThn156_N8lbs_core9LBSAp
323:   FUNC GLOBAL DEFAULT 13 unw_set_reg
324:   FUNC GLOBAL DEFAULT 13 _ZN8lbs_core14LBSAdapterB
325:   FUNC GLOBAL DEFAULT 13 _ZN8lbs_core10LBSApiBaseC
326:   FUNC GLOBAL DEFAULT 13 _ZN8lbs_core9LBSApiV029oo
327:   FUNC WEAK DEFAULT 13 _ZNSt3__16vectorI11BSObsD
328:   FUNC WEAK DEFAULT 13 _ZNSt3__16vectorI8BSInfo_
329:   OBJECT GLOBAL DEFAULT 17 _ZTVN8lbs_core9LBSApiV02E
330:   FUNC GLOBAL DEFAULT 13 _ZThn156_N8lbs_core9LBSAp
331:   FUNC GLOBAL DEFAULT 13 unw_is_fpreg
332:   FUNC GLOBAL DEFAULT 13 _ZN8lbs_core10LBSApiBase2
333:   OBJECT GLOBAL DEFAULT 22 _ZN8lbs_core8LBSProxy29mL
334:   FUNC GLOBAL DEFAULT 13 _ZThn156_N8lbs_core9LBSAp
335:   FUNC GLOBAL DEFAULT 13 _ZN8lbs_core9LBSApiV0215c
336:   FUNC GLOBAL DEFAULT 13 _ZNK8lbs_core8LBSProxy9ge
337:   FUNC GLOBAL DEFAULT 13 _Unwind_Resume
338:   OBJECT WEAK DEFAULT 15 _ZZNK8lbs_core8LBSProxy14
339:   FUNC WEAK DEFAULT 13 _ZNSt3__16vectorI11BSObsD
340:   FUNC GLOBAL DEFAULT 13 _Unwind_RaiseException
341:   FUNC GLOBAL DEFAULT 13 _ZN8lbs_core10LBSApiBaseC
342:   FUNC GLOBAL DEFAULT 13 _ZN8lbs_core10LBSApiBase9
343:   FUNC GLOBAL DEFAULT 13 _ZN8lbs_core9LBSApiV02C2E
344:   FUNC GLOBAL DEFAULT 13 _ZThn156_N8lbs_core9LBSAp
345:   FUNC GLOBAL DEFAULT 13 __gnu_unwind_frame
346:   FUNC GLOBAL DEFAULT 13 _ZN8lbs_core10LBSApiBase1
347:   FUNC GLOBAL DEFAULT 13 _ZN8lbs_core9LBSApiV0221i
348:   FUNC GLOBAL DEFAULT 13 _ZThn156_N8lbs_core9LBSAp
349:   FUNC GLOBAL DEFAULT 13 _Unwind_VRS_Get
350:   FUNC GLOBAL DEFAULT 13 __aeabi_memset4
351:   FUNC GLOBAL DEFAULT 13 __aeabi_d2ulz
352:   FUNC GLOBAL DEFAULT 13 __aeabi_unwind_cpp_pr0
353:   FUNC GLOBAL DEFAULT 13 _ZN8lbs_core14LBSAdapterB
354:   FUNC GLOBAL DEFAULT 13 _ZN8lbs_core14LBSAdapterB
355:   FUNC GLOBAL DEFAULT 13 _ZN8lbs_core10LBSApiBase2
356:   FUNC GLOBAL DEFAULT 13 getLBSProxy
357:   FUNC GLOBAL DEFAULT 13 _ZN8lbs_core9LBSApiV0215i
358:   FUNC GLOBAL DEFAULT 13 _ZThn156_N8lbs_core9LBSAp
359:   FUNC GLOBAL DEFAULT 13 _ZThn156_N8lbs_core9LBSAp
360:   FUNC GLOBAL DEFAULT 13 _ZN8lbs_core10LBSApiBase2
361:   FUNC GLOBAL DEFAULT 13 _ZNK8lbs_core8LBSProxy19i
362:   FUNC GLOBAL DEFAULT 13 __aeabi_unwind_cpp_pr1
363:   FUNC GLOBAL DEFAULT 13 _ZN8lbs_core14LocApiProxy
364:   FUNC GLOBAL DEFAULT 13 _ZN8lbs_core9LBSApiV0221m
365:   FUNC GLOBAL DEFAULT 13 _ZN8lbs_core9LBSApiV0223s
366:   FUNC GLOBAL DEFAULT 13 _ZN8lbs_core9LBSApiV02D0E
367:   FUNC GLOBAL DEFAULT 13 _ZN8lbs_core9LBSApiV0218b
368:   FUNC GLOBAL DEFAULT 13 unw_get_proc_name
369:   FUNC GLOBAL DEFAULT 13 __aeabi_unwind_cpp_pr2
370:   FUNC GLOBAL DEFAULT 13 __aeabi_memset8
