 0x000000000000000e (SONAME)             Library soname: [librecovery_ui.so]
  
Symbol   contains 879 entries:
Num:   Type Bind Vis Ndx Name
0:   NOTYPE LOCAL DEFAULT UND
1:   FUNC GLOBAL DEFAULT UND __cxa_finalize@LIBC (2)
2:   FUNC GLOBAL DEFAULT UND __cxa_atexit@LIBC (2)
3:   FUNC GLOBAL DEFAULT UND _ZN7android4base10LogMess
4:   FUNC GLOBAL DEFAULT UND _ZN7android4base10LogMess
5:   FUNC GLOBAL DEFAULT UND _ZN7android4base10LogMess
6:   FUNC GLOBAL DEFAULT UND _ZNKSt3__120__vector_base
7:   FUNC GLOBAL DEFAULT UND _ZNKSt3__16locale9use_fac
8:   FUNC GLOBAL DEFAULT UND _ZNKSt3__18ios_base6getlo
9:   FUNC GLOBAL DEFAULT UND _ZNSt3__112basic_stringIc
10:   FUNC GLOBAL DEFAULT UND _ZNSt3__113basic_ostreamI
11:   FUNC GLOBAL DEFAULT UND _ZNSt3__113basic_ostreamI
12:   OBJECT GLOBAL DEFAULT UND _ZNSt3__15ctypeIcE2idE
13:   FUNC GLOBAL DEFAULT UND _ZNSt3__16localeD1Ev
14:   FUNC GLOBAL DEFAULT UND _ZNSt3__18ios_base5clearE
15:   FUNC GLOBAL DEFAULT UND _ZdlPv
16:   FUNC GLOBAL DEFAULT UND _Znwm
17:   FUNC GLOBAL DEFAULT UND __stack_chk_fail@LIBC (2)
18:   FUNC GLOBAL DEFAULT UND memset@LIBC (2)
19:   FUNC GLOBAL DEFAULT UND _ZN7android4base12StringP
20:   FUNC GLOBAL DEFAULT UND _ZN7android4base13StringA
21:   FUNC GLOBAL DEFAULT UND _ZN7android4base14GetIntP
22:   FUNC GLOBAL DEFAULT UND _ZN7android4base15GetBool
23:   FUNC GLOBAL DEFAULT UND _ZN7android4base21GetMini
24:   FUNC GLOBAL DEFAULT UND _ZNKSt3__112basic_stringI
25:   FUNC GLOBAL DEFAULT UND _ZNKSt3__112basic_stringI
26:   FUNC GLOBAL DEFAULT UND _ZNKSt3__121__basic_strin
27:   FUNC GLOBAL DEFAULT UND _ZNSt3__112__next_primeEm
28:   FUNC GLOBAL DEFAULT UND _ZNSt3__112basic_stringIc
29:   FUNC GLOBAL DEFAULT UND _ZNSt3__112basic_stringIc
30:   FUNC GLOBAL DEFAULT UND _ZNSt3__112basic_stringIc
31:   FUNC GLOBAL DEFAULT UND _ZNSt3__113basic_ostreamI
32:   FUNC GLOBAL DEFAULT UND _ZNSt3__113basic_ostreamI
33:   FUNC GLOBAL DEFAULT UND _ZNSt3__115__thread_struc
34:   FUNC GLOBAL DEFAULT UND _ZNSt3__115__thread_struc
35:   FUNC GLOBAL DEFAULT UND _ZNSt3__119__thread_local
36:   FUNC GLOBAL DEFAULT UND _ZNSt3__120__throw_system
37:   FUNC GLOBAL DEFAULT UND _ZNSt3__15mutex4lockEv
38:   FUNC GLOBAL DEFAULT UND _ZNSt3__15mutex6unlockEv
39:   FUNC GLOBAL DEFAULT UND _ZNSt3__15mutexD1Ev
40:   FUNC GLOBAL DEFAULT UND _ZNSt3__16thread4joinEv
41:   FUNC GLOBAL DEFAULT UND _ZNSt3__16threadD1Ev
42:   FUNC GLOBAL DEFAULT UND _ZSt9terminatev
43:   FUNC GLOBAL DEFAULT UND _Znam
44:   FUNC GLOBAL DEFAULT UND __cxa_guard_acquire
45:   FUNC GLOBAL DEFAULT UND __cxa_guard_release
46:   FUNC GLOBAL DEFAULT UND __cxa_pure_virtual
47:   FUNC GLOBAL DEFAULT UND __errno@LIBC (2)
48:   FUNC GLOBAL DEFAULT UND abort@LIBC (2)
49:   FUNC GLOBAL DEFAULT UND closedir@LIBC (2)
50:   FUNC GLOBAL DEFAULT UND fclose@LIBC (2)
51:   FUNC GLOBAL DEFAULT UND feof@LIBC (2)
52:   FUNC GLOBAL DEFAULT UND fileno@LIBC (2)
53:   FUNC GLOBAL DEFAULT UND fopen@LIBC (2)
54:   FUNC GLOBAL DEFAULT UND fprintf@LIBC (2)
55:   FUNC GLOBAL DEFAULT UND fputs@LIBC (2)
56:   FUNC GLOBAL DEFAULT UND fseek@LIBC (2)
57:   FUNC GLOBAL DEFAULT UND fstat@LIBC (2)
58:   FUNC GLOBAL DEFAULT UND ftello@LIBC (2)
59:   FUNC GLOBAL DEFAULT UND fwrite@LIBC (2)
60:   FUNC GLOBAL DEFAULT UND getc@LIBC (2)
61:   FUNC GLOBAL DEFAULT UND gettimeofday@LIBC (2)
62:   FUNC GLOBAL DEFAULT UND memcmp@LIBC (2)
63:   FUNC GLOBAL DEFAULT UND memcpy@LIBC (2)
64:   FUNC GLOBAL DEFAULT UND opendir@LIBC (2)
65:   FUNC GLOBAL DEFAULT UND pthread_create@LIBC (2)
66:   FUNC GLOBAL DEFAULT UND pthread_setspecific@LIBC (2)
67:   FUNC GLOBAL DEFAULT UND readdir@LIBC (2)
68:   FUNC GLOBAL DEFAULT UND sscanf@LIBC (2)
69:   OBJECT GLOBAL DEFAULT UND stderr@LIBC (2)
70:   OBJECT GLOBAL DEFAULT UND stdout@LIBC (2)
71:   FUNC GLOBAL DEFAULT UND strerror@LIBC (2)
72:   FUNC GLOBAL DEFAULT UND strlen@LIBC (2)
73:   FUNC GLOBAL DEFAULT UND usleep@LIBC (2)
74:   FUNC GLOBAL DEFAULT UND _ZN7android4base16ReadFil
75:   FUNC GLOBAL DEFAULT UND _ZN7android4base17WriteSt
76:   FUNC GLOBAL DEFAULT UND _ZN7android4base4TrimERKN
77:   FUNC GLOBAL DEFAULT UND _ZN7android6volmgr13Volum
78:   FUNC GLOBAL DEFAULT UND _ZN7android6volmgr13Volum
79:   FUNC GLOBAL DEFAULT UND _ZNSt3__111this_thread9sl
80:   FUNC GLOBAL DEFAULT UND _ZNSt3__112basic_stringIc
81:   FUNC GLOBAL DEFAULT UND _ZNSt3__113basic_ostreamI
82:   FUNC GLOBAL DEFAULT UND _ZNSt3__118condition_vari
83:   FUNC GLOBAL DEFAULT UND _ZNSt3__118condition_vari
84:   FUNC GLOBAL DEFAULT UND _ZNSt3__118condition_vari
85:   FUNC GLOBAL DEFAULT UND _ZNSt3__16chrono12steady_
86:   FUNC GLOBAL DEFAULT UND _ZNSt3__16chrono12system_
87:   FUNC GLOBAL DEFAULT UND _ZNSt3__16thread6detachEv
88:   FUNC GLOBAL DEFAULT UND _ZNSt3__19to_stringEj
89:   FUNC GLOBAL DEFAULT UND __open_2@LIBC (2)
90:   FUNC GLOBAL DEFAULT UND __read_chk@LIBC (2)
91:   FUNC GLOBAL DEFAULT UND __strchr_chk@LIBC (2)
92:   FUNC GLOBAL DEFAULT UND __vsprintf_chk@LIBC (2)
93:   FUNC GLOBAL DEFAULT UND access@LIBC (2)
94:   FUNC GLOBAL DEFAULT UND close@LIBC (2)
95:   FUNC GLOBAL DEFAULT UND ioctl@LIBC (2)
96:   FUNC GLOBAL DEFAULT UND isspace@LIBC (2)
97:   FUNC GLOBAL DEFAULT UND memchr@LIBC (2)
98:   FUNC GLOBAL DEFAULT UND pause@LIBC (2)
99:   FUNC GLOBAL DEFAULT UND printf@LIBC (2)
100:   FUNC GLOBAL DEFAULT UND strtol@LIBC (2)
101:   FUNC GLOBAL DEFAULT UND strtoull@LIBC (2)
102:   FUNC GLOBAL DEFAULT UND tolower@LIBC (2)
103:   FUNC GLOBAL DEFAULT UND __openat_2@LIBC (2)
104:   FUNC WEAK DEFAULT UND android_fdsan_close_with_@LIBC_Q (3)
105:   FUNC WEAK DEFAULT UND android_fdsan_create_owne@LIBC_Q (3)
106:   FUNC WEAK DEFAULT UND android_fdsan_exchange_ow@LIBC_Q (3)
107:   FUNC GLOBAL DEFAULT UND dirfd@LIBC (2)
108:   FUNC GLOBAL DEFAULT UND epoll_create1@LIBC (2)
109:   FUNC GLOBAL DEFAULT UND epoll_ctl@LIBC (2)
110:   FUNC GLOBAL DEFAULT UND epoll_wait@LIBC (2)
111:   FUNC GLOBAL DEFAULT UND read@LIBC (2)
112:   FUNC GLOBAL DEFAULT UND strncmp@LIBC (2)
113:   FUNC GLOBAL DEFAULT UND _ZN7android4base11GetProp
114:   FUNC GLOBAL DEFAULT UND calloc@LIBC (2)
115:   FUNC GLOBAL DEFAULT UND free@LIBC (2)
116:   FUNC GLOBAL DEFAULT UND puts@LIBC (2)
117:   FUNC GLOBAL DEFAULT UND _ZdaPv
118:   FUNC GLOBAL DEFAULT UND __vsnprintf_chk@LIBC (2)
119:   FUNC GLOBAL DEFAULT UND malloc@LIBC (2)
120:   FUNC GLOBAL DEFAULT UND mmap@LIBC (2)
121:   FUNC GLOBAL DEFAULT UND munmap@LIBC (2)
122:   FUNC GLOBAL DEFAULT UND perror@LIBC (2)
123:   FUNC GLOBAL DEFAULT UND __poll_chk@LIBC (2)
124:   FUNC GLOBAL DEFAULT UND __strlcpy_chk@LIBC (2)
125:   FUNC GLOBAL DEFAULT UND __readlink_chk@LIBC (2)
126:   FUNC GLOBAL DEFAULT UND __strrchr_chk@LIBC (2)
127:   FUNC GLOBAL DEFAULT UND chmod@LIBC (2)
128:   FUNC GLOBAL DEFAULT UND chown@LIBC (2)
129:   FUNC GLOBAL DEFAULT UND clock_gettime@LIBC (2)
130:   FUNC GLOBAL DEFAULT UND fscanf@LIBC (2)
131:   FUNC GLOBAL DEFAULT UND getenv@LIBC (2)
132:   FUNC GLOBAL DEFAULT UND geteuid@LIBC (2)
133:   FUNC GLOBAL DEFAULT UND getline@LIBC (2)
134:   FUNC GLOBAL DEFAULT UND getpagesize@LIBC (2)
135:   FUNC GLOBAL DEFAULT UND log2@LIBC (4)
136:   FUNC GLOBAL DEFAULT UND mkdir@LIBC (2)
137:   FUNC GLOBAL DEFAULT UND mknod@LIBC (2)
138:   FUNC GLOBAL DEFAULT UND open@LIBC (2)
139:   FUNC GLOBAL DEFAULT UND realloc@LIBC (2)
140:   FUNC GLOBAL DEFAULT UND remove@LIBC (2)
141:   FUNC GLOBAL DEFAULT UND stat@LIBC (2)
142:   FUNC GLOBAL DEFAULT UND strcasecmp@LIBC (2)
143:   FUNC GLOBAL DEFAULT UND strcmp@LIBC (2)
144:   FUNC GLOBAL DEFAULT UND strdup@LIBC (2)
145:   FUNC GLOBAL DEFAULT UND strncasecmp@LIBC (2)
146:   FUNC GLOBAL DEFAULT UND strncpy@LIBC (2)
147:   FUNC GLOBAL DEFAULT UND strndup@LIBC (2)
148:   FUNC GLOBAL DEFAULT UND strstr@LIBC (2)
149:   FUNC GLOBAL DEFAULT UND vasprintf@LIBC (2)
150:   FUNC GLOBAL DEFAULT UND vfprintf@LIBC (2)
151:   FUNC GLOBAL DEFAULT UND __strncpy_chk2@LIBC (2)
152:   FUNC GLOBAL DEFAULT UND memmove@LIBC (2)
153:   FUNC GLOBAL DEFAULT UND qsort@LIBC (2)
154:   FUNC GLOBAL DEFAULT UND _ZN7android4base10StartsW
155:   FUNC GLOBAL DEFAULT UND _ZNKSt3__119__shared_weak
156:   FUNC GLOBAL DEFAULT UND _ZNKSt3__123__match_any_b
157:   FUNC GLOBAL DEFAULT UND _ZNKSt3__16locale4nameEv
158:   FUNC GLOBAL DEFAULT UND _ZNSt3__112basic_stringIc
159:   FUNC GLOBAL DEFAULT UND _ZNSt3__112basic_stringIc
160:   FUNC GLOBAL DEFAULT UND _ZNSt3__112basic_stringIc
161:   FUNC GLOBAL DEFAULT UND _ZNSt3__112basic_stringIc
162:   FUNC GLOBAL DEFAULT UND _ZNSt3__115__get_classnam
163:   FUNC GLOBAL DEFAULT UND _ZNSt3__119__shared_weak_
164:   FUNC GLOBAL DEFAULT UND _ZNSt3__119__shared_weak_
165:   FUNC GLOBAL DEFAULT UND _ZNSt3__120__get_collatio
166:   FUNC GLOBAL DEFAULT UND _ZNSt3__16localeC1ERKS0_
167:   FUNC GLOBAL DEFAULT UND _ZNSt3__16localeC1Ev
168:   OBJECT GLOBAL DEFAULT UND _ZNSt3__17collateIcE2idE
169:   FUNC GLOBAL DEFAULT UND __fread_chk@LIBC_N (5)
170:   FUNC GLOBAL DEFAULT UND aligned_alloc@LIBC_P (6)
171:   FUNC GLOBAL DEFAULT UND atoi@LIBC (2)
172:   FUNC GLOBAL DEFAULT UND longjmp@LIBC (2)
173:   FUNC GLOBAL DEFAULT UND png_create_info_struct
174:   FUNC GLOBAL DEFAULT UND png_create_read_struct
175:   FUNC GLOBAL DEFAULT UND png_destroy_read_struct
176:   FUNC GLOBAL DEFAULT UND png_get_IHDR
177:   FUNC GLOBAL DEFAULT UND png_get_channels
178:   FUNC GLOBAL DEFAULT UND png_get_text
179:   FUNC GLOBAL DEFAULT UND png_init_io
180:   FUNC GLOBAL DEFAULT UND png_read_info
181:   FUNC GLOBAL DEFAULT UND png_read_row
182:   FUNC GLOBAL DEFAULT UND png_set_bgr
183:   FUNC GLOBAL DEFAULT UND png_set_expand_gray_1_2_4
184:   FUNC GLOBAL DEFAULT UND png_set_longjmp_fn
185:   FUNC GLOBAL DEFAULT UND png_set_palette_to_rgb
186:   FUNC GLOBAL DEFAULT UND png_set_sig_bytes
187:   FUNC GLOBAL DEFAULT UND png_sig_cmp
188:   FUNC GLOBAL DEFAULT UND setjmp@LIBC (2)
189:   FUNC GLOBAL DEFAULT UND _ZN7android4base11SetProp
190:   FUNC GLOBAL DEFAULT UND _ZN7android4base5SplitERK
191:   FUNC GLOBAL DEFAULT UND _ZNSt3__19to_stringEm
192:   FUNC GLOBAL DEFAULT UND _ZNSt3__113basic_ostreamI
193:   FUNC GLOBAL DEFAULT UND _ZNSt3__113basic_ostreamI
194:   FUNC GLOBAL DEFAULT 14 _ZN10RecoveryUI7TimeKeyEi
195:   FUNC GLOBAL DEFAULT 14 _ZN12VrRecoveryUIC2Ev
196:   FUNC GLOBAL DEFAULT 14 _ZThn4152_NK12VrRecoveryU
197:   FUNC GLOBAL DEFAULT 14 adf_device_post_v2
198:   FUNC GLOBAL DEFAULT 14 drmAgpUnbind
199:   FUNC GLOBAL DEFAULT 14 drmGetDevice2
200:   FUNC GLOBAL DEFAULT 14 drmModeAtomicDuplicate
201:   FUNC WEAK DEFAULT 14 _ZNSt3__111basic_regexIcN
202:   FUNC GLOBAL DEFAULT 14 _ZN16ScreenRecoveryUI8Sho
203:   FUNC GLOBAL DEFAULT 14 drmModeSetCursor2
204:   FUNC WEAK DEFAULT 14 _ZNKSt3__111__alternateIc
205:   FUNC GLOBAL DEFAULT 14 _ZThn4152_NK16ScreenRecov
206:   FUNC GLOBAL DEFAULT 14 _ZN10RecoveryUI12OnInputE
207:   FUNC GLOBAL DEFAULT 14 drmAuthMagic
208:   FUNC GLOBAL DEFAULT 14 drmGetDevices2
209:   FUNC GLOBAL DEFAULT 14 drmModeCrtcGetGamma
210:   FUNC WEAK DEFAULT 14 _ZNSt3__16vectorINS_12bas
211:   FUNC GLOBAL DEFAULT 14 _ZNK11GraphicMenu10ItemsC
212:   FUNC GLOBAL DEFAULT 14 adf_interface_simple_post
213:   FUNC GLOBAL DEFAULT 14 drmSetClientCap
214:   FUNC GLOBAL DEFAULT 14 drmSyncobjDestroy
215:   FUNC WEAK DEFAULT 14 _ZNSt3__111basic_regexIcN
216:   FUNC GLOBAL DEFAULT 14 _ZN16ScreenRecoveryUI4Ini
217:   FUNC GLOBAL DEFAULT 14 _ZNK17MenuDrawFunctions20
218:   FUNC WEAK DEFAULT 14 _ZNSt3__110__function6__f
219:   FUNC GLOBAL DEFAULT 14 _ZN14WearRecoveryUI22upda
220:   FUNC GLOBAL DEFAULT 14 adf_interfaces_filter_by_
221:   FUNC GLOBAL DEFAULT 14 drmAgpVendorId
222:   FUNC GLOBAL DEFAULT 14 drmModeGetConnector
223:   FUNC GLOBAL DEFAULT 14 __eqtf2
224:   FUNC GLOBAL DEFAULT 14 __netf2
225:   FUNC GLOBAL DEFAULT 14 _ZN10RecoveryUI14OnTouchR
226:   FUNC GLOBAL DEFAULT 14 drmUnlock
227:   FUNC GLOBAL DEFAULT 14 drmModeGetPropertyBlob
228:   FUNC GLOBAL DEFAULT 14 _ZN8RangeSetC1EONSt3__16v
229:   FUNC WEAK DEFAULT 14 _ZNSt3__127__insertion_so
230:   FUNC GLOBAL DEFAULT 14 drmAgpMemoryUsed
231:   FUNC GLOBAL DEFAULT 14 _Z11gr_texticoniiPK9GRSur
232:   FUNC GLOBAL DEFAULT 14 _ZN10RecoveryUI8CheckKeyE
233:   FUNC GLOBAL DEFAULT 14 _ZNK16ScreenRecoveryUI20G
234:   FUNC GLOBAL DEFAULT 14 drmCreateContext
235:   FUNC GLOBAL DEFAULT 14 drmRandom
236:   FUNC WEAK DEFAULT 14 _ZNKSt3__112regex_traitsI
237:   FUNC GLOBAL DEFAULT 14 _ZN6DeviceC2EP10RecoveryU
238:   FUNC GLOBAL DEFAULT 14 _ZN16ScreenRecoveryUI8Sho
239:   FUNC GLOBAL DEFAULT 14 _Z7gr_textPK6GRFontiiPKcb
240:   FUNC GLOBAL DEFAULT 14 adf_overlay_engine_suppor
241:   FUNC GLOBAL DEFAULT 14 drmDevicesEqual
242:   FUNC WEAK DEFAULT 14 _ZNKSt3__111basic_regexIc
243:   FUNC GLOBAL DEFAULT 14 _ZN15MinuiBackendAdf4Flip
244:   FUNC WEAK DEFAULT 14 _ZNKSt3__117__repeat_one_
245:   FUNC GLOBAL DEFAULT 14 _ZNK16ScreenRecoveryUI18D
246:   FUNC GLOBAL DEFAULT 14 drmGetReservedContextList
247:   FUNC GLOBAL DEFAULT 14 drmModeAddFB2
248:   FUNC WEAK DEFAULT 14 _ZNSt3__111basic_regexIcN
249:   FUNC GLOBAL DEFAULT 14 _ZN8RangeSetC2EONSt3__16v
250:   FUNC GLOBAL DEFAULT 14 drmAddContextTag
251:   FUNC GLOBAL DEFAULT 14 drmDMA
252:   FUNC GLOBAL DEFAULT 14 sw_sync_timeline_inc
253:   FUNC WEAK DEFAULT 14 _ZNSt3__16vectorINS_4pair
254:   FUNC GLOBAL DEFAULT 14 _ZThn4152_NK16ScreenRecov
255:   FUNC GLOBAL DEFAULT 14 drmCommandWriteRead
256:   FUNC WEAK DEFAULT 14 _ZNSt3__111basic_regexIcN
257:   FUNC GLOBAL DEFAULT 14 _ZNK8TextMenu10ItemsCount
258:   FUNC GLOBAL DEFAULT 14 _ZN10RecoveryUI21OnTouchD
259:   FUNC GLOBAL DEFAULT 14 adf_overlay_engines_for_i
260:   FUNC GLOBAL DEFAULT 14 _ZN15MinuiBackendAdfC1Ev
261:   FUNC WEAK DEFAULT 14 _ZNKSt3__111__match_anyIc
262:   FUNC WEAK DEFAULT 14 _ZNKSt3__113__empty_state
263:   FUNC GLOBAL DEFAULT 14 _ZN8TextMenuC1EbmRKNSt3__
264:   FUNC GLOBAL DEFAULT 14 drmModeAtomicCommit
265:   FUNC GLOBAL DEFAULT 14 drmModeFreeConnector
266:   FUNC GLOBAL DEFAULT 14 drmModeMoveCursor
267:   FUNC GLOBAL DEFAULT 14 drmModeObjectGetPropertie
268:   OBJECT WEAK DEFAULT 18 _ZTV4Menu
269:   FUNC GLOBAL DEFAULT 14 _ZN10RecoveryUI12EnqueueT
270:   FUNC GLOBAL DEFAULT 14 drmSetInterfaceVersion
271:   FUNC GLOBAL DEFAULT 14 drmModeCreateLease
272:   FUNC GLOBAL DEFAULT 14 sync_fence_info
273:   FUNC GLOBAL DEFAULT 14 drmModeGetCrtc
274:   FUNC WEAK DEFAULT 14 _ZNKSt3__118__back_ref_co
275:   FUNC WEAK DEFAULT 14 _ZNSt3__111basic_regexIcN
276:   OBJECT GLOBAL DEFAULT 18 _ZTV6Device
277:   FUNC GLOBAL DEFAULT 14 _ZN16ScreenRecoveryUI22dr
278:   FUNC GLOBAL DEFAULT 14 _ZN8TextMenu13SelectVisib
279:   FUNC GLOBAL DEFAULT 14 _Z7ev_exitv
280:   FUNC WEAK DEFAULT 14 _ZNSt3__16vectorINS_12bas
281:   FUNC GLOBAL DEFAULT 14 _ZN8TextMenu6SelectEi
282:   FUNC GLOBAL DEFAULT 14 _ZN14SortedRangeSet6Inser
283:   FUNC GLOBAL DEFAULT 14 _ZN16ScreenRecoveryUIC2Ev
284:   FUNC WEAK DEFAULT 14 _ZNSt3__16vectorINS_10uni
285:   FUNC GLOBAL DEFAULT 14 drmModeFreeModeInfo
286:   FUNC GLOBAL DEFAULT 14 _Z17ev_sync_key_stateRKNS
287:   OBJECT WEAK DEFAULT 18 _ZTVNSt3__118__back_ref_c
288:   FUNC GLOBAL DEFAULT 14 _Z12gr_menu_fontv
289:   FUNC GLOBAL DEFAULT 14 _Z8gr_clearv
290:   FUNC GLOBAL DEFAULT 14 _ZN16ScreenRecoveryUI8Set
291:   FUNC GLOBAL DEFAULT 14 _ZThn4152_N16ScreenRecove
292:   FUNC GLOBAL DEFAULT 14 drmRmMap
293:   FUNC GLOBAL DEFAULT 14 drmScatterGatherAlloc
294:   FUNC WEAK DEFAULT 14 _ZNSt3__111basic_regexIcN
295:   OBJECT WEAK DEFAULT 18 _ZTVNSt3__110__back_refIc
296:   FUNC GLOBAL DEFAULT 14 _ZNK12VrRecoveryUI16DrawH
297:   FUNC GLOBAL DEFAULT 14 _ZN16ScreenRecoveryUI10Se
298:   FUNC GLOBAL DEFAULT 14 _ZNK16ScreenRecoveryUI15G
299:   FUNC GLOBAL DEFAULT 14 adf_interfaces_filter_by_
300:   FUNC GLOBAL DEFAULT 14 drmModeSetPlane
301:   FUNC WEAK DEFAULT 14 _ZNSt3__16vectorIN10MemMa
302:   FUNC GLOBAL DEFAULT 14 drmAddBufs
303:   FUNC WEAK DEFAULT 14 _ZNKSt3__128__begin_marke
304:   FUNC WEAK DEFAULT 14 _ZNSt3__111basic_regexIcN
305:   FUNC GLOBAL DEFAULT 14 _ZNK16ScreenRecoveryUI11S
306:   FUNC GLOBAL DEFAULT 14 _ZN14WearRecoveryUIC2Ev
307:   FUNC GLOBAL DEFAULT 14 drmModeAddFB
308:   FUNC GLOBAL DEFAULT 14 drmModeFreeProperty
309:   FUNC GLOBAL DEFAULT 14 drmModeObjectSetProperty
310:   FUNC GLOBAL DEFAULT 14 _ZN12GRSurfaceDrm6CreateE
311:   FUNC GLOBAL DEFAULT 14 drmGetLock
312:   FUNC WEAK DEFAULT 14 _ZNSt3__16vectorINS_7__st
313:   FUNC GLOBAL DEFAULT 14 _ZN4MenuC2EmRK13DrawInter
314:   OBJECT GLOBAL DEFAULT 18 _ZTV10RecoveryUI
315:   FUNC GLOBAL DEFAULT 14 _ZThn4152_NK16ScreenRecov
316:   FUNC GLOBAL DEFAULT 14 _ZN10RecoveryUI14Calibrat
317:   FUNC GLOBAL DEFAULT 14 drmSyncobjFDToHandle
318:   FUNC GLOBAL DEFAULT 14 _ZN11GraphicMenuC1EPK9GRS
319:   FUNC GLOBAL DEFAULT 14 _ZN10RecoveryUI14IsUsbCon
320:   FUNC GLOBAL DEFAULT 14 _ZNK12VrRecoveryUI11DrawS
321:   FUNC GLOBAL DEFAULT 14 _Z12gr_fb_heightv
322:   FUNC GLOBAL DEFAULT 14 _Z13gr_get_heightPK9GRSur
323:   FUNC GLOBAL DEFAULT 14 _ZNK4Menu9selectionEv
324:   FUNC GLOBAL DEFAULT 14 _Z6rebootRKNSt3__112basic
325:   FUNC GLOBAL DEFAULT 14 drmScatterGatherFree
326:   FUNC GLOBAL DEFAULT 14 drmWaitVBlank
327:   FUNC GLOBAL DEFAULT 14 drmModeDestroyPropertyBlo
328:   FUNC GLOBAL DEFAULT 14 _ZN12GRSurfaceDrmD0Ev
329:   FUNC GLOBAL DEFAULT 14 _ZN16ScreenRecoveryUI19Lo
330:   FUNC GLOBAL DEFAULT 14 _ZNK16ScreenRecoveryUI8Se
331:   FUNC GLOBAL DEFAULT 14 _Z7ev_waiti
332:   FUNC GLOBAL DEFAULT 14 adf_device_detach
333:   FUNC GLOBAL DEFAULT 14 drmModeFreeFB
334:   FUNC WEAK DEFAULT 14 _ZNSt3__111basic_regexIcN
335:   FUNC GLOBAL DEFAULT 14 _ZNK8RangeSet14GetBlockNu
336:   FUNC GLOBAL DEFAULT 14 __floatditf
337:   FUNC WEAK DEFAULT 14 _ZN7android4base9ParseUin
338:   FUNC WEAK DEFAULT 14 _ZNKSt3__110__r_anchorIcE
339:   FUNC GLOBAL DEFAULT 14 __addtf3
340:   FUNC GLOBAL DEFAULT 14 _ZNK12VrRecoveryUI11Scree
341:   FUNC GLOBAL DEFAULT 14 _ZN12GRSurfaceAdfD2Ev
342:   FUNC GLOBAL DEFAULT 14 _ZN9GRSurface6CreateEmmmm
343:   FUNC GLOBAL DEFAULT 14 _ZN16ScreenRecoveryUI12Ke
344:   FUNC GLOBAL DEFAULT 14 _ZNK16ScreenRecoveryUI15G
345:   FUNC GLOBAL DEFAULT 14 drmDelContextTag
346:   FUNC GLOBAL DEFAULT 14 drmModeAtomicSetCursor
347:   FUNC GLOBAL DEFAULT 14 sync_file_info
348:   FUNC GLOBAL DEFAULT 14 _ZN10MemMapping7MapFileER
349:   FUNC GLOBAL DEFAULT 14 _ZNK16ScreenRecoveryUI12D
350:   FUNC WEAK DEFAULT 14 _ZNSt3__16__sortIRNS_6__l
351:   FUNC GLOBAL DEFAULT 14 drmGetDeviceNameFromFd2
352:   FUNC WEAK DEFAULT 14 _ZNSt3__111basic_regexIcN
353:   FUNC GLOBAL DEFAULT 14 _ZNK14SortedRangeSet8Over
354:   FUNC GLOBAL DEFAULT 14 drmGetNodeTypeFromFd
355:   FUNC WEAK DEFAULT 14 _ZNKSt3__120__bracket_exp
356:   FUNC GLOBAL DEFAULT 14 _Z32res_create_multi_disp
357:   FUNC WEAK DEFAULT 14 _ZNKSt3__116__back_ref_ic
358:   OBJECT WEAK DEFAULT 18 _ZTVNSt3__116__owns_one_s
359:   FUNC GLOBAL DEFAULT 14 _ZNK11GraphicMenu9DrawIte
360:   FUNC GLOBAL DEFAULT 14 drmModeCreatePropertyBlob
361:   FUNC WEAK DEFAULT 14 _ZNSt3__111basic_regexIcN
362:   FUNC GLOBAL DEFAULT 14 _Z7gr_initv
363:   FUNC WEAK DEFAULT 14 _ZNSt3__114__thread_proxy
364:   FUNC GLOBAL DEFAULT 14 _ZN15MinuiBackendAdfD1Ev
365:   FUNC GLOBAL DEFAULT 14 drmGetMap
366:   FUNC GLOBAL DEFAULT 14 drmOpenWithType
367:   FUNC GLOBAL DEFAULT 14 _ZN15MinuiBackendAdf10Dev
368:   FUNC WEAK DEFAULT 14 _ZNKSt3__111__lookaheadIc
369:   OBJECT WEAK DEFAULT 18 _ZTVNSt3__111__lookaheadI
370:   FUNC GLOBAL DEFAULT 14 _ZThn4152_NK16ScreenRecov
371:   FUNC GLOBAL DEFAULT 14 _Z9ev_add_fdON7android4ba
372:   FUNC GLOBAL DEFAULT 14 _Z10gr_measurePK6GRFontPK
373:   FUNC GLOBAL DEFAULT 14 _Z15gr_pixel_formatv
374:   FUNC WEAK DEFAULT 14 _ZNKSt3__111basic_regexIc
375:   FUNC WEAK DEFAULT 14 _ZNKSt3__112regex_traitsI
376:   FUNC GLOBAL DEFAULT 14 _ZN10MemMappingD2Ev
377:   FUNC GLOBAL DEFAULT 14 adf_free_overlay_engine_d
378:   FUNC GLOBAL DEFAULT 14 _ZN17MinuiBackendFbdev23S
379:   OBJECT GLOBAL DEFAULT 18 _ZTV17MenuDrawFunctions
380:   FUNC WEAK DEFAULT 14 _ZNSt3__111basic_regexIcN
381:   FUNC WEAK DEFAULT 14 _ZNSt3__16vectorIPcNS_9al
382:   FUNC GLOBAL DEFAULT 14 _ZN16ScreenRecoveryUI18Pr
383:   FUNC GLOBAL DEFAULT 14 _ZN16ScreenRecoveryUID2Ev
384:   FUNC GLOBAL DEFAULT 14 adf_set_event
385:   FUNC GLOBAL DEFAULT 14 drmCrtcQueueSequence
386:   FUNC WEAK DEFAULT 14 _ZNSt3__111basic_regexIcN
387:   FUNC WEAK DEFAULT 14 _ZNSt3__110__function6__f
388:   OBJECT WEAK DEFAULT 18 _ZTVNSt3__112__match_char
389:   OBJECT WEAK DEFAULT 18 _ZTVNSt3__117__repeat_one
390:   FUNC WEAK DEFAULT 14 _ZNSt3__16vectorINS_4pair
391:   FUNC GLOBAL DEFAULT 14 drmSyncobjWait
392:   OBJECT WEAK DEFAULT 18 _ZTVNSt3__126__end_marked
393:   FUNC GLOBAL DEFAULT 14 __unordtf2
394:   FUNC GLOBAL DEFAULT 14 _ZN10RecoveryUI4InitERKNS
395:   FUNC GLOBAL DEFAULT 14 _ZNK10RecoveryUI11HasPowe
396:   FUNC GLOBAL DEFAULT 14 adf_device_close
397:   FUNC GLOBAL DEFAULT 14 drmIoctl
398:   FUNC GLOBAL DEFAULT 14 _ZN15MinuiBackendAdf4Sync
399:   FUNC GLOBAL DEFAULT 14 _ZN17MinuiBackendFbdev5Bl
400:   FUNC GLOBAL DEFAULT 14 _ZN8RangeSet5ParseERKNSt3
401:   FUNC GLOBAL DEFAULT 14 _ZN10MemMapping12MapBlock
402:   FUNC GLOBAL DEFAULT 14 _Z34res_create_localized_
403:   FUNC GLOBAL DEFAULT 14 _ZN16ScreenRecoveryUI27Se
404:   FUNC GLOBAL DEFAULT 14 _ZN16ScreenRecoveryUI8Sho
405:   FUNC GLOBAL DEFAULT 14 adf_overlay_engines_filte
406:   FUNC GLOBAL DEFAULT 14 drmFreeBusid
407:   FUNC GLOBAL DEFAULT 14 drmGetContextTag
408:   FUNC GLOBAL DEFAULT 14 _Z12ev_get_inputijP11inpu
409:   FUNC GLOBAL DEFAULT 14 drmPrimeFDToHandle
410:   OBJECT WEAK DEFAULT 18 _ZTV14GRSurfaceFbdev
411:   FUNC GLOBAL DEFAULT 14 _ZNK16ScreenRecoveryUI12P
412:   OBJECT GLOBAL DEFAULT 18 _ZTV12VrRecoveryUI
413:   FUNC GLOBAL DEFAULT 14 _ZN15MinuiBackendDrmD2Ev
414:   FUNC GLOBAL DEFAULT 14 _ZN17MinuiBackendFbdev4In
415:   OBJECT WEAK DEFAULT 18 _ZTVNSt3__121__empty_non_
416:   FUNC GLOBAL DEFAULT 14 _ZN16ScreenRecoveryUI19Se
417:   FUNC GLOBAL DEFAULT 14 _ZN16ScreenRecoveryUI20Lo
418:   FUNC GLOBAL DEFAULT 14 _ZNK16ScreenRecoveryUI12D
419:   FUNC GLOBAL DEFAULT 14 _ZNK8TextMenu9MenuStartEv
420:   FUNC GLOBAL DEFAULT 14 _ZN10RecoveryUID1Ev
421:   OBJECT GLOBAL DEFAULT 18 _ZTV17MinuiBackendFbdev
422:   FUNC WEAK DEFAULT 14 _ZNKSt3__110__l_anchorIcE
423:   FUNC WEAK DEFAULT 14 _ZNSt3__16vectorINS_4pair
424:   FUNC WEAK DEFAULT 14 _ZNSt3__16vectorIN10Recov
425:   FUNC GLOBAL DEFAULT 14 drmAgpDeviceId
426:   FUNC WEAK DEFAULT 14 _ZNKSt3__126__end_marked_
427:   FUNC GLOBAL DEFAULT 14 _ZNK8TextMenu12text_heade
428:   FUNC WEAK DEFAULT 14 _ZNKSt3__110__function6__
429:   FUNC GLOBAL DEFAULT 14 adf_interface_set_mode
430:   FUNC GLOBAL DEFAULT 14 drmHashDelete
431:   FUNC GLOBAL DEFAULT 14 _ZN16ScreenRecoveryUI8Set
432:   FUNC GLOBAL DEFAULT 14 _ZNK8TextMenu9DrawItemsEi
433:   FUNC GLOBAL DEFAULT 14 _ZN10RecoveryUI10ProcessK
434:   FUNC GLOBAL DEFAULT 14 drmGetDevice
435:   FUNC GLOBAL DEFAULT 14 _ZNK11GraphicMenu10DrawHe
436:   FUNC GLOBAL DEFAULT 14 adf_device_post
437:   FUNC GLOBAL DEFAULT 14 _Z33StringVectorToNullTer
438:   FUNC GLOBAL DEFAULT 14 _ZN12BlockMapData17ParseB
439:   FUNC WEAK DEFAULT 14 _ZNSt3__112__hash_tableIN
440:   FUNC GLOBAL DEFAULT 14 _Z25ev_iterate_available_
441:   FUNC GLOBAL DEFAULT 14 _ZN14WearRecoveryUI18draw
442:   FUNC WEAK DEFAULT 14 _ZNSt3__16vectorI8RangeSe
443:   FUNC GLOBAL DEFAULT 14 drmGetDevices
444:   FUNC GLOBAL DEFAULT 14 drmSetBusid
445:   FUNC WEAK DEFAULT 14 _ZNSt3__124__put_characte
446:   FUNC GLOBAL DEFAULT 14 adf_interface_simple_post
447:   FUNC GLOBAL DEFAULT 14 drmSyncobjReset
448:   FUNC WEAK DEFAULT 14 _ZNSt3__112__deque_baseIN
449:   FUNC WEAK DEFAULT 14 _ZNSt3__114__split_buffer
450:   FUNC WEAK DEFAULT 14 _ZNSt3__16vectorINS_4pair
451:   FUNC WEAK DEFAULT 14 _ZNSt3__16vectorINS_4pair
452:   FUNC GLOBAL DEFAULT 14 _Z7gr_blitPK9GRSurfaceiii
453:   FUNC GLOBAL DEFAULT 14 _ZN11GraphicMenu22Validat
454:   FUNC GLOBAL DEFAULT 14 _ZThn4152_NK12VrRecoveryU
455:   FUNC GLOBAL DEFAULT 14 drmSetServerInfo
456:   FUNC GLOBAL DEFAULT 14 drmModeFreePlane
457:   FUNC GLOBAL DEFAULT 14 drmModeGetConnectorCurren
458:   FUNC GLOBAL DEFAULT 14 __fe_raise_inexact
459:   FUNC GLOBAL DEFAULT 14 drmModePageFlipTarget
460:   FUNC GLOBAL DEFAULT 14 _ZN16ScreenRecoveryUI13Lo
461:   FUNC GLOBAL DEFAULT 14 _ZNK10RecoveryUI15HasThre
462:   FUNC WEAK DEFAULT 14 _ZNKSt3__111__end_stateIc
463:   FUNC WEAK DEFAULT 14 _ZNSt3__111basic_regexIcN
464:   FUNC WEAK DEFAULT 14 _ZNSt3__111basic_regexIcN
465:   OBJECT WEAK DEFAULT 18 _ZTVNSt3__116__back_ref_i
466:   FUNC GLOBAL DEFAULT 14 _ZN17MenuDrawFunctionsC2E
467:   FUNC GLOBAL DEFAULT 14 _ZN16ScreenRecoveryUI9Set
468:   FUNC GLOBAL DEFAULT 14 __multf3
469:   OBJECT WEAK DEFAULT 18 _ZTVNSt3__110__l_anchorIc
470:   FUNC GLOBAL DEFAULT 14 _ZN16ScreenRecoveryUI8Sho
471:   FUNC WEAK DEFAULT 14 _ZNSt3__127__insertion_so
472:   FUNC GLOBAL DEFAULT 14 drmModeFreeCrtc
473:   FUNC GLOBAL DEFAULT 14 drmModeGetProperty
474:   FUNC WEAK DEFAULT 14 _ZNSt3__111basic_regexIcN
475:   FUNC GLOBAL DEFAULT 14 _ZN5Paths3GetEv
476:   FUNC GLOBAL DEFAULT 14 _ZNK12VrRecoveryUI18DrawH
477:   FUNC GLOBAL DEFAULT 14 drmAgpAlloc
478:   FUNC WEAK DEFAULT 14 _ZNSt3__111basic_regexIcN
479:   FUNC WEAK DEFAULT 14 _ZNSt3__111basic_regexIcN
480:   FUNC WEAK DEFAULT 14 _ZNSt3__16vectorINS_9sub_
481:   FUNC GLOBAL DEFAULT 14 _ZThn4152_NK12VrRecoveryU
482:   FUNC GLOBAL DEFAULT 14 adf_free_interface_data
483:   FUNC GLOBAL DEFAULT 14 drmFreeDevices
484:   FUNC WEAK DEFAULT 14 _ZNKSt3__115__word_bounda
485:   OBJECT GLOBAL DEFAULT 18 _ZTV12GRSurfaceDrm
486:   FUNC WEAK DEFAULT 14 _ZNKSt3__111basic_regexIc
487:   FUNC WEAK DEFAULT 14 _ZNSt3__111basic_regexIcN
488:   FUNC GLOBAL DEFAULT 14 _ZN10PngHandlerD1Ev
489:   OBJECT WEAK DEFAULT 18 _ZTVNSt3__115__word_bound
490:   FUNC GLOBAL DEFAULT 14 _Z11gr_fb_widthv
491:   FUNC GLOBAL DEFAULT 14 _Z8gr_colorhhhh
492:   FUNC GLOBAL DEFAULT 14 _Z11ev_dispatchv
493:   FUNC GLOBAL DEFAULT 14 drmCommandWrite
494:   FUNC GLOBAL DEFAULT 14 drmFreeReservedContextLis
495:   FUNC WEAK DEFAULT 14 _ZNSt3__112__hash_tableIN
496:   FUNC GLOBAL DEFAULT 14 _ZN10RecoveryUI12OnTouchT
497:   FUNC GLOBAL DEFAULT 14 drmAddContextPrivateMappi
498:   FUNC GLOBAL DEFAULT 14 _ZN15MinuiBackendAdfC2Ev
499:   FUNC GLOBAL DEFAULT 14 _ZN15MinuiBackendDrm4Init
500:   FUNC GLOBAL DEFAULT 14 _ZNK16ScreenRecoveryUI20D
501:   FUNC WEAK DEFAULT 14 _ZNKSt3__110__function6__
502:   FUNC GLOBAL DEFAULT 14 drmAgpVersionMinor
503:   FUNC GLOBAL DEFAULT 14 drmGetDeviceNameFromFd
504:   FUNC GLOBAL DEFAULT 14 drmSetMaster
505:   FUNC GLOBAL DEFAULT 14 sync_fence_info_free
506:   FUNC WEAK DEFAULT 14 _ZNKSt3__111basic_regexIc
507:   FUNC GLOBAL DEFAULT 14 _ZN14SortedRangeSetC1EONS
508:   FUNC GLOBAL DEFAULT 14 _ZNK12VrRecoveryUI8DrawFi
509:   FUNC GLOBAL DEFAULT 14 drmCommandNone
510:   FUNC GLOBAL DEFAULT 14 drmModeGetFB
511:   FUNC GLOBAL DEFAULT 14 _ZN12GRSurfaceAdfD0Ev
512:   FUNC GLOBAL DEFAULT 14 _ZN5PathsC1Ev
513:   FUNC GLOBAL DEFAULT 14 _ZNK8TextMenu10DrawHeader
514:   FUNC GLOBAL DEFAULT 14 drmAgpGetMode
515:   FUNC GLOBAL DEFAULT 14 drmOpenControl
516:   FUNC GLOBAL DEFAULT 14 _ZN16ScreenRecoveryUI20up
517:   FUNC GLOBAL DEFAULT 14 _ZNK9GRSurface5CloneEv
518:   FUNC GLOBAL DEFAULT 14 adf_read_event
519:   FUNC WEAK DEFAULT 14 _ZNSt3__17__sort3IRNS_6__
520:   FUNC GLOBAL DEFAULT 14 drmCloseOnce
521:   FUNC GLOBAL DEFAULT 14 drmModeCrtcSetGamma
522:   FUNC GLOBAL DEFAULT 14 drmModeListLessees
523:   FUNC GLOBAL DEFAULT 14 drmModePageFlip
524:   FUNC WEAK DEFAULT 14 _ZNSt3__111basic_regexIcN
525:   FUNC GLOBAL DEFAULT 14 _ZThn4152_N16ScreenRecove
526:   FUNC GLOBAL DEFAULT 14 _ZN14WearRecoveryUI22draw
527:   FUNC GLOBAL DEFAULT 14 adf_format_str
528:   FUNC WEAK DEFAULT 14 _ZNSt3__116__owns_one_sta
529:   OBJECT WEAK DEFAULT 18 _ZTVNSt3__16__loopIcEE
530:   FUNC GLOBAL DEFAULT 14 _ZN10RecoveryUI12Interrup
531:   FUNC GLOBAL DEFAULT 14 _ZN16ScreenRecoveryUI8Sho
532:   FUNC GLOBAL DEFAULT 14 drmHandleEvent
533:   FUNC GLOBAL DEFAULT 14 _ZN14SortedRangeSetC2EONS
534:   FUNC GLOBAL DEFAULT 14 _ZN10RecoveryUI11IsLongPr
535:   FUNC GLOBAL DEFAULT 14 adf_device_attach
536:   FUNC WEAK DEFAULT 14 _ZNSt3__111basic_regexIcN
537:   FUNC GLOBAL DEFAULT 14 _ZN11GraphicMenu6SelectEi
538:   FUNC GLOBAL DEFAULT 14 __fe_getround
539:   FUNC GLOBAL DEFAULT 14 _ZN10RecoveryUI15InitScre
540:   FUNC GLOBAL DEFAULT 14 __subtf3
541:   FUNC GLOBAL DEFAULT 14 drmMap
542:   FUNC GLOBAL DEFAULT 14 _Z24res_create_alpha_surf
543:   FUNC WEAK DEFAULT 14 _ZNKSt3__120__match_char_
544:   FUNC GLOBAL DEFAULT 14 _Z7gr_flipv
545:   FUNC GLOBAL DEFAULT 14 _ZN16ScreenRecoveryUI12Sh
546:   FUNC GLOBAL DEFAULT 14 drmError
547:   FUNC GLOBAL DEFAULT 14 _ZN10RecoveryUI12OnTouchP
548:   OBJECT GLOBAL DEFAULT 18 _ZTV14WearRecoveryUI
549:   FUNC GLOBAL DEFAULT 14 drmGetContextFlags
550:   FUNC GLOBAL DEFAULT 14 drmModeFreeObjectProperti
551:   FUNC GLOBAL DEFAULT 14 _ZN16ScreenRecoveryUID0Ev
552:   FUNC GLOBAL DEFAULT 14 _ZNK17MenuDrawFunctions13
553:   FUNC GLOBAL DEFAULT 14 drmGetRenderDeviceNameFro
554:   FUNC GLOBAL DEFAULT 14 drmModeGetResources
555:   FUNC GLOBAL DEFAULT 14 _ZN10PngHandlerC2ERKNSt3_
556:   FUNC WEAK DEFAULT 14 _ZNSt3__111basic_regexIcN
557:   FUNC GLOBAL DEFAULT 14 _ZN10RecoveryUIC2Ev
558:   FUNC GLOBAL DEFAULT 14 _ZN16ScreenRecoveryUI7Put
559:   FUNC WEAK DEFAULT 14 _ZNSt3__16vectorINS_12bas
560:   FUNC WEAK DEFAULT 14 _ZNSt3__17__sort4IRNS_6__
561:   FUNC GLOBAL DEFAULT 14 _ZNK14WearRecoveryUI10Cre
562:   FUNC WEAK DEFAULT 14 _ZNSt3__111basic_regexIcN
563:   FUNC GLOBAL DEFAULT 14 __getf2
564:   FUNC GLOBAL DEFAULT 14 _ZN10RecoveryUI14WaitInpu
565:   FUNC GLOBAL DEFAULT 14 _ZNK17MenuDrawFunctions12
566:   FUNC GLOBAL DEFAULT 14 drmAgpBind
567:   FUNC GLOBAL DEFAULT 14 drmModeGetEncoder
568:   FUNC GLOBAL DEFAULT 14 _ZN12GRSurfaceDrmD1Ev
569:   OBJECT GLOBAL DEFAULT 18 _ZTV16ScreenRecoveryUI
570:   FUNC GLOBAL DEFAULT 14 drmAgpSize
571:   FUNC GLOBAL DEFAULT 14 drmHashCreate
572:   FUNC GLOBAL DEFAULT 14 drmModeGetPlaneResources
573:   FUNC WEAK DEFAULT 14 _ZNKSt3__111__alternateIc
574:   FUNC WEAK DEFAULT 14 _ZNSt3__111basic_regexIcN
575:   FUNC GLOBAL DEFAULT 14 drmGetCap
576:   FUNC GLOBAL DEFAULT 14 drmGetClient
577:   FUNC GLOBAL DEFAULT 14 drmHashDestroy
578:   FUNC WEAK DEFAULT 14 _ZNKSt3__118__match_char_
579:   OBJECT GLOBAL DEFAULT 18 _ZTV11GraphicMenu
580:   OBJECT GLOBAL DEFAULT 18 _ZTV8TextMenu
581:   FUNC GLOBAL DEFAULT 14 _ZNK12VrRecoveryUI12DrawT
582:   FUNC GLOBAL DEFAULT 14 drmModeFreePropertyBlob
583:   FUNC GLOBAL DEFAULT 14 _ZN6Device6GoHomeEv
584:   FUNC GLOBAL DEFAULT 14 _ZN10RecoveryUI12IsKeyPre
585:   FUNC GLOBAL DEFAULT 14 _ZN16ScreenRecoveryUI10Lo
586:   FUNC GLOBAL DEFAULT 14 drmAgpBase
587:   FUNC GLOBAL DEFAULT 14 sync_merge
588:   FUNC GLOBAL DEFAULT 14 _Z14ev_get_epollfdv
589:   FUNC GLOBAL DEFAULT 14 _Z16res_free_surfaceP9GRS
590:   FUNC WEAK DEFAULT 14 _ZNSt3__111basic_regexIcN
591:   FUNC GLOBAL DEFAULT 14 _ZNK14WearRecoveryUI19Get
592:   FUNC GLOBAL DEFAULT 14 drmSwitchToContext
593:   FUNC GLOBAL DEFAULT 14 drmModeAtomicAddProperty
594:   OBJECT WEAK DEFAULT 18 _ZTV9GRSurface
595:   OBJECT GLOBAL DEFAULT 18 _ZTV12GRSurfaceAdf
596:   FUNC GLOBAL DEFAULT 14 _ZN15MinuiBackendDrmD0Ev
597:   FUNC GLOBAL DEFAULT 14 _ZN17MinuiBackendFbdev4Fl
598:   OBJECT WEAK DEFAULT 18 _ZTVNSt3__111__alternateI
599:   FUNC GLOBAL DEFAULT 14 _ZN16ScreenRecoveryUI34Sh
600:   FUNC GLOBAL DEFAULT 14 drmDestroyContext
601:   FUNC GLOBAL DEFAULT 14 drmDropMaster
602:   FUNC GLOBAL DEFAULT 14 drmModeAtomicAlloc
603:   FUNC GLOBAL DEFAULT 14 _Z9gr_rotate10GRRotation
604:   FUNC GLOBAL DEFAULT 14 __letf2
605:   FUNC GLOBAL DEFAULT 14 _Z23ev_iterate_touch_inpu
606:   FUNC GLOBAL DEFAULT 14 drmGetHashTable
607:   FUNC GLOBAL DEFAULT 14 drmFreeDevice
608:   FUNC GLOBAL DEFAULT 14 _ZN15MinuiBackendAdfD2Ev
609:   FUNC GLOBAL DEFAULT 14 _Z14matches_localeRKNSt3_
610:   FUNC WEAK DEFAULT 14 _ZNSt3__15dequeINS_7__sta
611:   FUNC GLOBAL DEFAULT 14 _ZN6Device13HandleMenuKey
612:   FUNC GLOBAL DEFAULT 14 _ZNK16ScreenRecoveryUI11D
613:   FUNC GLOBAL DEFAULT 14 _ZNK16ScreenRecoveryUI8Dr
614:   FUNC GLOBAL DEFAULT 14 adf_get_device_data
615:   OBJECT GLOBAL DEFAULT 18 _ZTV15MinuiBackendDrm
616:   FUNC WEAK DEFAULT 14 _ZNSt3__16vectorINS_9sub_
617:   FUNC GLOBAL DEFAULT 14 _ZN16ScreenRecoveryUI10Sc
618:   FUNC GLOBAL DEFAULT 14 _ZN12VrRecoveryUIC1Ev
619:   FUNC GLOBAL DEFAULT 14 drmGetMagic
620:   FUNC GLOBAL DEFAULT 14 drmRandomDouble
621:   FUNC GLOBAL DEFAULT 14 drmModeAtomicFree
622:   FUNC GLOBAL DEFAULT 14 drmModeDetachMode
623:   FUNC GLOBAL DEFAULT 14 _ZN14GRSurfaceFbdev6Creat
624:   FUNC WEAK DEFAULT 14 _ZNSt3__16vectorIjNS_9all
625:   FUNC GLOBAL DEFAULT 14 drmCtlUninstHandler
626:   FUNC GLOBAL DEFAULT 14 _ZN11GraphicMenuC2EPK9GRS
627:   FUNC GLOBAL DEFAULT 14 _ZN16ScreenRecoveryUI22up
628:   FUNC GLOBAL DEFAULT 14 _ZN17MenuDrawFunctionsC1E
629:   FUNC GLOBAL DEFAULT 14 drmModeSetCursor
630:   OBJECT WEAK DEFAULT 18 _ZTVNSt3__120__shared_ptr
631:   FUNC WEAK DEFAULT 14 _ZNSt3__16vectorIlNS_9all
632:   FUNC GLOBAL DEFAULT 14 _ZThn4152_NK16ScreenRecov
633:   FUNC GLOBAL DEFAULT 14 drmGetLibVersion
634:   FUNC GLOBAL DEFAULT 14 _Z12gr_init_fontPKcPP6GRF
635:   FUNC GLOBAL DEFAULT 14 _ZN16ScreenRecoveryUI15Se
636:   FUNC GLOBAL DEFAULT 14 _ZN16ScreenRecoveryUI6Red
637:   FUNC GLOBAL DEFAULT 14 _ZNK16ScreenRecoveryUI14G
638:   FUNC GLOBAL DEFAULT 14 drmGetEntry
639:   FUNC GLOBAL DEFAULT 14 drmSyncobjImportSyncFile
640:   FUNC WEAK DEFAULT 14 _ZNKSt3__121__empty_non_o
641:   FUNC WEAK DEFAULT 14 _ZNKSt3__16__loopIcE12__e
642:   FUNC WEAK DEFAULT 14 _ZNSt3__114__split_buffer
643:   FUNC GLOBAL DEFAULT 14 _Z26res_create_display_su
644:   FUNC GLOBAL DEFAULT 14 drmDestroyDrawable
645:   FUNC GLOBAL DEFAULT 14 drmSyncobjSignal
646:   FUNC GLOBAL DEFAULT 14 _ZN10RecoveryUI13CancelWa
647:   FUNC GLOBAL DEFAULT 14 _ZNK12VrRecoveryUI12DrawT
648:   FUNC GLOBAL DEFAULT 14 drmCtlInstHandler
649:   FUNC GLOBAL DEFAULT 14 drmModeGetPlane
650:   FUNC GLOBAL DEFAULT 14 _ZN16ScreenRecoveryUI10Se
651:   FUNC GLOBAL DEFAULT 14 _ZN8TextMenu6ScrollEi
652:   FUNC GLOBAL DEFAULT 14 _ZThn4152_NK16ScreenRecov
653:   FUNC GLOBAL DEFAULT 14 drmOpenOnce
654:   FUNC GLOBAL DEFAULT 14 _ZNK8TextMenu13ItemsOverf
655:   FUNC GLOBAL DEFAULT 14 _ZThn4152_NK16ScreenRecov
656:   FUNC GLOBAL DEFAULT 14 drmModeAttachMode
657:   FUNC WEAK DEFAULT 14 _ZNSt3__111basic_regexIcN
658:   FUNC WEAK DEFAULT 14 _ZNSt3__117__owns_two_sta
659:   FUNC GLOBAL DEFAULT 14 _ZN16ScreenRecoveryUI25Ch
660:   FUNC GLOBAL DEFAULT 14 drmCrtcGetSequence
661:   FUNC GLOBAL DEFAULT 14 drmModeGetLease
662:   FUNC WEAK DEFAULT 14 _ZNSt3__110__function6__f
663:   FUNC GLOBAL DEFAULT 14 drmPrimeHandleToFD
664:   FUNC GLOBAL DEFAULT 14 _ZN14SortedRangeSet6Inser
665:   FUNC GLOBAL DEFAULT 14 _ZN6DeviceC1EP10RecoveryU
666:   FUNC GLOBAL DEFAULT 14 _ZN16ScreenRecoveryUI22dr
667:   FUNC WEAK DEFAULT 14 _ZNSt3__114__thread_proxy
668:   FUNC GLOBAL DEFAULT 14 _Z7ev_initNSt3__18functio
669:   FUNC GLOBAL DEFAULT 14 _ZN10RecoveryUI12KeyLongP
670:   FUNC WEAK DEFAULT 14 _ZNKSt3__112regex_traitsI
671:   FUNC GLOBAL DEFAULT 14 _ZN6Device14GetMenuHeader
672:   FUNC GLOBAL DEFAULT 14 _ZN10RecoveryUI9FlushKeys
673:   FUNC GLOBAL DEFAULT 14 _ZN16ScreenRecoveryUI14In
674:   FUNC GLOBAL DEFAULT 14 _ZNK16ScreenRecoveryUI10C
675:   FUNC GLOBAL DEFAULT 14 drmGetPrimaryDeviceNameFr
676:   FUNC WEAK DEFAULT 14 _ZNSt3__114__split_buffer
677:   FUNC GLOBAL DEFAULT 14 _ZN6Device12GetMenuItemsE
678:   FUNC GLOBAL DEFAULT 14 adf_interfaces
679:   FUNC GLOBAL DEFAULT 14 drmModeAtomicMerge
680:   FUNC GLOBAL DEFAULT 14 _ZN10RecoveryUID2Ev
681:   FUNC GLOBAL DEFAULT 14 _ZN16ScreenRecoveryUI17Pr
682:   FUNC GLOBAL DEFAULT 14 _ZN10RecoveryUI19SetScree
683:   FUNC GLOBAL DEFAULT 14 drmUnmap
684:   FUNC GLOBAL DEFAULT 14 drmOpen
685:   FUNC GLOBAL DEFAULT 14 _ZN15MinuiBackendDrm15Fin
686:   FUNC GLOBAL DEFAULT 14 drmAgpEnable
687:   FUNC GLOBAL DEFAULT 14 _ZN15MinuiBackendDrm4Flip
688:   FUNC WEAK DEFAULT 14 _ZNKSt3__110__back_refIcE
689:   FUNC GLOBAL DEFAULT 14 _ZThn4152_NK16ScreenRecov
690:   FUNC GLOBAL DEFAULT 14 drmGetInterruptFromBusID
691:   FUNC GLOBAL DEFAULT 14 drmSyncobjHandleToFD
692:   FUNC WEAK DEFAULT 14 _ZNSt3__111basic_regexIcN
693:   FUNC GLOBAL DEFAULT 14 _ZNK8RangeSet8OverlapsERK
694:   FUNC GLOBAL DEFAULT 14 _ZThn4152_NK16ScreenRecov
695:   FUNC GLOBAL DEFAULT 14 drmAgpVersionMajor
696:   FUNC GLOBAL DEFAULT 14 drmMarkBufs
697:   FUNC GLOBAL DEFAULT 14 drmUnmapBufs
698:   FUNC WEAK DEFAULT 14 _ZNSt3__111basic_regexIcN
699:   FUNC WEAK DEFAULT 14 _ZNSt3__16vectorINS_4pair
700:   FUNC GLOBAL DEFAULT 14 drmModeFreeEncoder
701:   FUNC GLOBAL DEFAULT 14 _ZThn4152_NK12VrRecoveryU
702:   FUNC GLOBAL DEFAULT 14 drmMapBufs
703:   FUNC GLOBAL DEFAULT 14 drmOpenOnceWithType
704:   FUNC GLOBAL DEFAULT 14 drmModeDirtyFB
705:   FUNC WEAK DEFAULT 14 _ZN7android4base9ParseUin
706:   FUNC GLOBAL DEFAULT 14 _ZN6Device14InvokeMenuIte
707:   FUNC WEAK DEFAULT 14 _ZNSt3__118__insertion_so
708:   FUNC GLOBAL DEFAULT 14 adf_get_interface_data
709:   FUNC GLOBAL DEFAULT 14 drmClose
710:   FUNC GLOBAL DEFAULT 14 drmSyncobjExportSyncFile
711:   FUNC GLOBAL DEFAULT 14 _ZN10MemMapping5MapFDEi
712:   FUNC GLOBAL DEFAULT 14 _ZN16ScreenRecoveryUIC1Ev
713:   FUNC WEAK DEFAULT 14 _ZNSt3__110__function6__f
714:   FUNC GLOBAL DEFAULT 14 _ZThn4152_NK12VrRecoveryU
715:   FUNC GLOBAL DEFAULT 14 adf_get_overlay_engine_da
716:   FUNC GLOBAL DEFAULT 14 drmCreateDrawable
717:   FUNC GLOBAL DEFAULT 14 drmModeRmFB
718:   FUNC WEAK DEFAULT 14 _ZNSt3__111basic_regexIcN
719:   FUNC WEAK DEFAULT 14 _ZNSt3__16vectorINS_9sub_
720:   FUNC GLOBAL DEFAULT 14 _ZNK14SortedRangeSet19Get
721:   FUNC WEAK DEFAULT 14 _ZNSt3__116__owns_one_sta
722:   FUNC GLOBAL DEFAULT 14 _ZNK8TextMenu7MenuEndEv
723:   FUNC GLOBAL DEFAULT 14 _ZThn4152_NK16ScreenRecov
724:   FUNC GLOBAL DEFAULT 14 _ZNK12VrRecoveryUI12Scree
725:   FUNC GLOBAL DEFAULT 14 drmAgpFree
726:   OBJECT GLOBAL DEFAULT 18 _ZTV15MinuiBackendAdf
727:   FUNC WEAK DEFAULT 14 _ZNKSt3__112__match_charI
728:   FUNC WEAK DEFAULT 14 _ZNSt3__16__sortIRNS_6__l
729:   FUNC GLOBAL DEFAULT 14 _ZN16ScreenRecoveryUI6Pri
730:   FUNC GLOBAL DEFAULT 14 _ZNK16ScreenRecoveryUI19G
731:   FUNC WEAK DEFAULT 14 _ZNSt3__110__function6__f
732:   FUNC GLOBAL DEFAULT 14 adf_interface_open
733:   FUNC GLOBAL DEFAULT 14 drmAgpRelease
734:   FUNC GLOBAL DEFAULT 14 sync_file_info_free
735:   FUNC GLOBAL DEFAULT 14 sync_wait
736:   FUNC GLOBAL DEFAULT 14 _Z12gr_font_sizePK6GRFont
737:   FUNC GLOBAL DEFAULT 14 _ZN14WearRecoveryUIC1Ev
738:   FUNC GLOBAL DEFAULT 14 drmHashInsert
739:   FUNC GLOBAL DEFAULT 14 adf_devices
740:   FUNC GLOBAL DEFAULT 14 drmModeFreePlaneResources
741:   FUNC GLOBAL DEFAULT 14 _ZN15MinuiBackendAdf4Init
742:   FUNC GLOBAL DEFAULT 14 _ZN15MinuiBackendAdf5Blan
743:   OBJECT WEAK DEFAULT 18 _ZTVNSt3__110__r_anchorIc
744:   FUNC GLOBAL DEFAULT 14 _ZN8TextMenuC2EbmRKNSt3__
745:   FUNC WEAK DEFAULT 14 _ZNKSt3__110__function6__
746:   OBJECT WEAK DEFAULT 18 _ZTVNSt3__110__function6_
747:   FUNC GLOBAL DEFAULT 14 drmModeFreeResources
748:   FUNC WEAK DEFAULT 14 _ZNKSt3__112regex_traitsI
749:   FUNC WEAK DEFAULT 14 _ZNSt3__16vectorIcNS_9all
750:   FUNC GLOBAL DEFAULT 14 drmAgpAcquire
751:   FUNC GLOBAL DEFAULT 14 drmGetBufInfo
752:   FUNC GLOBAL DEFAULT 14 drmGetContextPrivateMappi
753:   FUNC WEAK DEFAULT 14 _ZNSt3__15dequeINS_7__sta
754:   FUNC GLOBAL DEFAULT 14 _ZN14SortedRangeSet6Inser
755:   FUNC GLOBAL DEFAULT 14 _Z18get_locales_in_pngRKN
756:   FUNC GLOBAL DEFAULT 14 _ZN10PngHandlerD2Ev
757:   FUNC GLOBAL DEFAULT 14 adf_interface_simple_buff
758:   FUNC GLOBAL DEFAULT 14 drmCheckModesettingSuppor
759:   FUNC GLOBAL DEFAULT 14 _ZN10RecoveryUI13OnKeyDet
760:   FUNC GLOBAL DEFAULT 14 adf_interface_blank
761:   FUNC GLOBAL DEFAULT 14 drmModeSetCrtc
762:   FUNC GLOBAL DEFAULT 14 _ZN15MinuiBackendDrm19Dis
763:   OBJECT WEAK DEFAULT 18 _ZTVNSt3__111__match_anyI
764:   FUNC GLOBAL DEFAULT 14 _ZN16ScreenRecoveryUI13Se
765:   FUNC WEAK DEFAULT 14 _ZNSt3__110__function6__f
766:   FUNC GLOBAL DEFAULT 14 drmAddMap
767:   FUNC GLOBAL DEFAULT 14 drmModeAtomicGetCursor
768:   FUNC GLOBAL DEFAULT 14 _ZN15MinuiBackendAdf13Int
769:   FUNC WEAK DEFAULT 14 _ZNSt3__111basic_regexIcN
770:   FUNC WEAK DEFAULT 14 _ZNSt3__114__split_buffer
771:   FUNC GLOBAL DEFAULT 14 _ZN11GraphicMenu8Validate
772:   FUNC GLOBAL DEFAULT 14 _ZNK16ScreenRecoveryUI13D
773:   FUNC GLOBAL DEFAULT 14 adf_device_open
774:   FUNC GLOBAL DEFAULT 14 _ZN16ScreenRecoveryUI32dr
775:   FUNC GLOBAL DEFAULT 14 _ZN12GRSurfaceAdfD1Ev
776:   FUNC WEAK DEFAULT 14 _ZNSt3__16vectorIhNS_9all
777:   FUNC GLOBAL DEFAULT 14 _ZN5PathsC2Ev
778:   FUNC GLOBAL DEFAULT 14 _ZNK16ScreenRecoveryUI12S
779:   FUNC WEAK DEFAULT 14 _ZNSt3__16vectorINS_12bas
780:   FUNC GLOBAL DEFAULT 14 drmHashFirst
781:   FUNC WEAK DEFAULT 14 _ZNSt3__16vectorINS_9sub_
782:   FUNC WEAK DEFAULT 14 _ZNSt3__17__sort4IRNS_6__
783:   FUNC GLOBAL DEFAULT 14 _Z12gr_get_widthPK9GRSurf
784:   FUNC GLOBAL DEFAULT 14 drmAvailable
785:   FUNC GLOBAL DEFAULT 14 _ZN15MinuiBackendDrm5Blan
786:   FUNC GLOBAL DEFAULT 14 drmFreeBufs
787:   OBJECT WEAK DEFAULT 18 _ZTVNSt3__113__empty_stat
788:   FUNC GLOBAL DEFAULT 14 _ZN8RangeSet8PushBackENSt
789:   FUNC GLOBAL DEFAULT 14 _ZNK16ScreenRecoveryUI10C
790:   FUNC GLOBAL DEFAULT 14 _ZNK8TextMenu8TextItemEm
791:   FUNC WEAK DEFAULT 14 _ZNSt3__16vectorINS_12bas
792:   FUNC WEAK DEFAULT 14 _ZNKSt3__110__function6__
793:   FUNC WEAK DEFAULT 14 _ZNSt3__120__shared_ptr_p
794:   FUNC GLOBAL DEFAULT 14 _ZN6Device23RemoveMenuIte
795:   FUNC GLOBAL DEFAULT 14 _Z11gr_sys_fontv
796:   FUNC GLOBAL DEFAULT 14 _ZNK10RecoveryUI14HasTouc
797:   FUNC GLOBAL DEFAULT 14 drmRandomDestroy
798:   OBJECT WEAK DEFAULT 18 _ZTVNSt3__118__match_char
799:   OBJECT WEAK DEFAULT 18 _ZTVNSt3__110__function6_
800:   FUNC GLOBAL DEFAULT 14 adf_interfaces_for_overla
801:   FUNC GLOBAL DEFAULT 14 drmMalloc
802:   FUNC GLOBAL DEFAULT 14 drmSetContextFlags
803:   FUNC GLOBAL DEFAULT 14 _ZN15MinuiBackendAdfD0Ev
804:   FUNC GLOBAL DEFAULT 14 _ZN15MinuiBackendDrm13Drm
805:   FUNC GLOBAL DEFAULT 14 sync_pt_info
806:   FUNC WEAK DEFAULT 14 _ZNSt3__16vectorIcNS_9all
807:   FUNC GLOBAL DEFAULT 14 __cmptf2
808:   FUNC GLOBAL DEFAULT 14 adf_overlay_engines
809:   FUNC GLOBAL DEFAULT 14 _ZN12GRSurfaceAdf6CreateE
810:   FUNC GLOBAL DEFAULT 14 _ZN10MemMappingD1Ev
811:   FUNC GLOBAL DEFAULT 14 _ZNK16ScreenRecoveryUI13D
812:   FUNC GLOBAL DEFAULT 14 _ZNK16ScreenRecoveryUI9Ge
813:   FUNC GLOBAL DEFAULT 14 drmGetBusid
814:   FUNC GLOBAL DEFAULT 14 drmGetStats
815:   FUNC GLOBAL DEFAULT 14 drmGetVersion
816:   FUNC GLOBAL DEFAULT 14 sw_sync_timeline_create
817:   OBJECT WEAK DEFAULT 18 _ZTVNSt3__128__begin_mark
818:   FUNC WEAK DEFAULT 14 _ZNSt3__16vectorINS_10uni
819:   FUNC GLOBAL DEFAULT 14 drmCommandRead
820:   FUNC GLOBAL DEFAULT 14 _ZN16ScreenRecoveryUID1Ev
821:   FUNC GLOBAL DEFAULT 14 adf_find_simple_post_conf
822:   FUNC GLOBAL DEFAULT 14 drmSyncobjCreate
823:   OBJECT WEAK DEFAULT 18 _ZTVNSt3__120__bracket_ex
824:   FUNC GLOBAL DEFAULT 14 _ZN16ScreenRecoveryUI13Is
825:   FUNC GLOBAL DEFAULT 14 _ZNK16ScreenRecoveryUI16D
826:   FUNC WEAK DEFAULT 14 _ZNSt3__112__hash_tableIN
827:   FUNC GLOBAL DEFAULT 14 _ZN14WearRecoveryUI8SetSt
828:   FUNC GLOBAL DEFAULT 14 sw_sync_fence_create
829:   FUNC GLOBAL DEFAULT 14 __gttf2
830:   FUNC GLOBAL DEFAULT 14 drmModeAddFB2WithModifier
831:   FUNC GLOBAL DEFAULT 14 _ZN12GRSurfaceDrmD2Ev
832:   OBJECT WEAK DEFAULT 18 _ZTVNSt3__120__match_char
833:   FUNC GLOBAL DEFAULT 14 _ZNK8RangeSet5SplitEm
834:   FUNC GLOBAL DEFAULT 14 _ZN16ScreenRecoveryUI11Se
835:   FUNC GLOBAL DEFAULT 14 _ZN15MinuiBackendDrm14Drm
836:   FUNC WEAK DEFAULT 14 _ZNSt3__16vectorINS_4pair
837:   FUNC GLOBAL DEFAULT 14 drmUpdateDrawableInfo
838:   FUNC GLOBAL DEFAULT 14 drmHashNext
839:   FUNC GLOBAL DEFAULT 14 _ZN10PngHandlerC1ERKNSt3_
840:   FUNC WEAK DEFAULT 14 _ZNSt3__117__owns_two_sta
841:   FUNC WEAK DEFAULT 14 _ZNSt3__120__shared_ptr_p
842:   FUNC WEAK DEFAULT 14 _ZNSt3__17__sort3IRNS_6__
843:   FUNC GLOBAL DEFAULT 14 _Z7gr_filliiii
844:   FUNC GLOBAL DEFAULT 14 _ZN16ScreenRecoveryUI18Wa
845:   FUNC GLOBAL DEFAULT 14 drmFinish
846:   FUNC GLOBAL DEFAULT 14 drmMsg
847:   FUNC GLOBAL DEFAULT 14 _ZN16ScreenRecoveryUI18dr
848:   FUNC GLOBAL DEFAULT 14 _ZN16ScreenRecoveryUI9Cle
849:   FUNC GLOBAL DEFAULT 14 drmModeConnectorSetProper
850:   FUNC GLOBAL DEFAULT 14 _ZNK8RangeSet8ToStringEv
851:   FUNC GLOBAL DEFAULT 14 drmFreeVersion
852:   FUNC GLOBAL DEFAULT 14 _ZN10RecoveryUI10EnqueueK
853:   FUNC WEAK DEFAULT 14 _ZNSt3__16vectorINS_4pair
854:   FUNC GLOBAL DEFAULT 14 drmOpenRender
855:   FUNC GLOBAL DEFAULT 14 drmRandomCreate
856:   FUNC GLOBAL DEFAULT 14 _ZN15MinuiBackendDrmD1Ev
857:   FUNC GLOBAL DEFAULT 14 _Z11gr_fb_blankb
858:   FUNC GLOBAL DEFAULT 14 _ZN16ScreenRecoveryUI5Pri
859:   FUNC GLOBAL DEFAULT 14 _Z20res_set_resource_dirR
860:   OBJECT WEAK DEFAULT 18 _ZTVNSt3__111__end_stateI
861:   FUNC GLOBAL DEFAULT 14 _ZN8RangeSet5ClearEv
862:   FUNC GLOBAL DEFAULT 14 _ZN10RecoveryUI15SetEnabl
863:   FUNC GLOBAL DEFAULT 14 _ZN10RecoveryUID0Ev
864:   FUNC GLOBAL DEFAULT 14 __lttf2
865:   FUNC GLOBAL DEFAULT 14 adf_overlay_engine_open
866:   FUNC GLOBAL DEFAULT 14 drmAgpMemoryAvail
867:   FUNC WEAK DEFAULT 14 _ZNKSt3__16__loopIcE6__ex
868:   FUNC WEAK DEFAULT 14 _ZNSt3__114__split_buffer
869:   OBJECT WEAK DEFAULT 18 _ZTVNSt3__123__match_any_
870:   FUNC GLOBAL DEFAULT 14 drmFree
871:   FUNC GLOBAL DEFAULT 14 drmHashLookup
872:   FUNC GLOBAL DEFAULT 14 _Z7gr_exitv
873:   FUNC GLOBAL DEFAULT 14 _ZThn4152_NK12VrRecoveryU
874:   FUNC GLOBAL DEFAULT 14 adf_free_device_data
875:   FUNC GLOBAL DEFAULT 14 _ZN16ScreenRecoveryUI22Sh
876:   FUNC GLOBAL DEFAULT 14 drmModeRevokeLease
877:   FUNC WEAK DEFAULT 14 _ZNKSt3__112regex_traitsI
878:   OBJECT WEAK DEFAULT 18 _ZTVNSt3__117__owns_two_s
